shipment_id,account_options
16851702267151149516J,['xpressbees_jio']
16840406485631347348J,['xpressbees_jio']
16849246709101729538J,['xpressbees_jio']
16855744875351459585J,"['delhivery_jio', 'ecom_jio', 'xpressbees_jio']"
16852906561011049046J,['xpressbees_jio']
16839222046581848914J,"['delhivery_jio', 'xpressbees_jio', 'ecom_jio']"
16845959624051259047J,['xpressbees_jio']
16857759847211506846J,['xpressbees_jio']
16861382835331187237J,['xpressbees_jio']
16863264318991356735J,['xpressbees_jio']
