shipment_id,dp,raw_response
16927005054341675633J,xpressbees_jio,"{""AWBNo"": ""145917851893514"", ""ReturnCode"": 103, ""ReturnMessage"": ""Drop pincode not serviceable"", ""TokenNumber"": null}"
16927607296331827078J,xpressbees_jio,"{""AWBNo"": ""16927607296331827078J"", ""ReturnCode"": 103, ""ReturnMessage"": ""Drop EmailID is invalid"", ""TokenNumber"": null}"
16927943102991901950J,xpressbees_jio,"{""AWBNo"": ""145917851900532"", ""ReturnCode"": 103, ""ReturnMessage"": ""Drop pincode not serviceable"", ""TokenNumber"": null}"
16927976746421259556J,xpressbees_jio,"{""AWBNo"": ""16927976746421259556J"", ""ReturnCode"": 103, ""ReturnMessage"": ""Drop EmailID is invalid"", ""TokenNumber"": null}"
16928083059371978696J,xpressbees_jio,"{""AWBNo"": ""16928083059371978696J"", ""ReturnCode"": 103, ""ReturnMessage"": ""Drop EmailID is invalid"", ""TokenNumber"": null}"
16928086925981968464J,xpressbees_jio,"{""AWBNo"": ""16928086925981968464J"", ""ReturnCode"": 103, ""ReturnMessage"": ""Drop EmailID is invalid"", ""TokenNumber"": null}"
16928120376981849267J,xpressbees_jio,"{""AWBNo"": ""16928120376981849267J"", ""ReturnCode"": 103, ""ReturnMessage"": ""Drop EmailID is invalid"", ""TokenNumber"": null}"
16928412026311010823J,ecom_jio,"{""shipments"": [{""reason"": ""Delivery is not operational on pincode 486882 at this moment !"", ""order_number"": ""16928412026311010823J"", ""awb"": ""10047427870"", ""success"": false}]}"
16928762465021028532J,delhivery_jio,"{""cash_pickups_count"": 0.0, ""package_count"": 1, ""upload_wbn"": ""UPL7209161834743677796"", ""replacement_count"": 0, ""rmk"": ""An internal Error has occurred, Please get in touch with client.support@delhivery.com"", ""pickups_count"": 0, ""packages"": [{""status"": ""Fail"", ""client"": ""JIOMART3P SURFACE"", ""sort_code"": null, ""remarks"": [""Incorrect phone number(s) for order 13960190774253336394""], ""waybill"": """", ""cod_amount"": 3195.0, ""payment"": ""COD"", ""serviceable"": false, ""refnum"": ""13960190774253336394""}], ""cash_pickups"": 0.0, ""cod_count"": 0, ""success"": false, ""prepaid_count"": 0, ""cod_amount"": 0.0}"
16928766063431399610J,delhivery_jio,"{""cash_pickups_count"": 0.0, ""package_count"": 1, ""upload_wbn"": ""UPL17092139480271963662"", ""replacement_count"": 0, ""rmk"": ""An internal Error has occurred, Please get in touch with client.support@delhivery.com"", ""pickups_count"": 0, ""packages"": [{""status"": ""Fail"", ""client"": ""JIOMART3P SURFACE"", ""sort_code"": null, ""remarks"": [""Incorrect phone number(s) for order 62995823078158615890""], ""waybill"": """", ""cod_amount"": 599.0, ""payment"": ""COD"", ""serviceable"": false, ""refnum"": ""62995823078158615890""}], ""cash_pickups"": 0.0, ""cod_count"": 0, ""success"": false, ""prepaid_count"": 0, ""cod_amount"": 0.0}"
16929386659471536260J,ecom_jio,"{""shipments"": [{""reason"": ""Delivery is not operational on pincode 852221 at this moment !"", ""order_number"": ""16929386659471536260J"", ""awb"": ""10045043192"", ""success"": false}]}"
16929400400511519514J,ecom_jio,"{""shipments"": [{""reason"": ""Delivery is not operational on pincode 852221 at this moment !"", ""order_number"": ""16929400400511519514J"", ""awb"": ""10047605132"", ""success"": false}]}"
16929408028171097345J,ecom_jio,"{""shipments"": [{""reason"": ""Delivery is not operational on pincode 852221 at this moment !"", ""order_number"": ""16929408028171097345J"", ""awb"": ""10047608786"", ""success"": false}]}"
16929470025221180573J,xpressbees_jio,"{""AWBNo"": ""145917851900683"", ""ReturnCode"": 103, ""ReturnMessage"": ""Drop pincode not serviceable"", ""TokenNumber"": null}"
16929482702531782332J,ecom_jio,"{""shipments"": [{""reason"": ""Delivery is not operational on pincode 506329 at this moment !"", ""order_number"": ""16929482702531782332J"", ""awb"": ""10047608575"", ""success"": false}]}"
16929586161851519074J,xpressbees_jio,"{""AWBNo"": ""145917851900684"", ""ReturnCode"": 103, ""ReturnMessage"": ""Drop pincode not serviceable"", ""TokenNumber"": null}"
16929653602991623590J,ecom_jio,"{""shipments"": [{""reason"": ""Pickup is not operational on pincode 678556 at this moment !"", ""order_number"": ""16929653602991623590J"", ""awb"": ""10047430030"", ""success"": false}]}"
16930593669771979240J,ecom_jio,"{""shipments"": [{""reason"": ""Delivery is not operational on pincode 852221 at this moment !"", ""order_number"": ""16930593669771979240J"", ""awb"": ""3212661027"", ""success"": false}]}"
16930625641131671813J,ecom_jio,"{""shipments"": [{""reason"": ""Delivery is not operational on pincode 486882 at this moment !"", ""order_number"": ""16930625641131671813J"", ""awb"": ""10047604950"", ""success"": false}]}"
16930724430581925731J,xpressbees_jio,"{""AWBNo"": ""16930724430581925731J"", ""ReturnCode"": 103, ""ReturnMessage"": ""Drop EmailID is invalid"", ""TokenNumber"": null}"
16930883235451853145J,xpressbees_jio,"{""AWBNo"": ""16930883235451853145J"", ""ReturnCode"": 103, ""ReturnMessage"": ""Drop EmailID is invalid"", ""TokenNumber"": null}"
16930981514381926205J,delhivery_jio,"{""cash_pickups_count"": 0.0, ""package_count"": 1, ""upload_wbn"": ""UPL8969995368747450515"", ""replacement_count"": 0, ""rmk"": ""An internal Error has occurred, Please get in touch with client.support@delhivery.com"", ""pickups_count"": 0, ""packages"": [{""status"": ""Fail"", ""client"": ""JIOMART3P SURFACE"", ""sort_code"": null, ""remarks"": [""Crashing while saving package due to exception '522436 is non serviceable pincode'. Package might have been partially saved.""], ""waybill"": """", ""cod_amount"": 630.0, ""payment"": ""COD"", ""serviceable"": false, ""refnum"": ""42206560960427583682""}], ""cash_pickups"": 0.0, ""cod_count"": 0, ""success"": false, ""prepaid_count"": 0, ""cod_amount"": 0.0}"
16931005828341744939J,ecom_jio,"{""shipments"": [{""reason"": ""Delivery is not operational on pincode 486882 at this moment !"", ""order_number"": ""16931005828341744939J"", ""awb"": ""10047607464"", ""success"": false}]}"
16931038755261342609J,ecom_jio,"{""shipments"": [{""reason"": ""Delivery is not operational on pincode 486882 at this moment !"", ""order_number"": ""16931038755261342609J"", ""awb"": ""10047429610"", ""success"": false}]}"
16931093572351457552J,ecom_jio,"{""shipments"": [{""reason"": ""Pickup is not operational on pincode 678556 at this moment !"", ""order_number"": ""16931093572351457552J"", ""awb"": ""3212653599"", ""success"": false}]}"
16931115105171687417J,xpressbees_jio,"{""AWBNo"": ""16931115105171687417J"", ""ReturnCode"": 103, ""ReturnMessage"": ""Drop EmailID is invalid"", ""TokenNumber"": null}"
16931421692461671829J,xpressbees_jio,"{""AWBNo"": ""145917851900687"", ""ReturnCode"": 103, ""ReturnMessage"": ""Drop pincode not serviceable"", ""TokenNumber"": null}"
16931448891421550539J,ecom_jio,"{""shipments"": [{""reason"": ""Delivery is not operational on pincode 486882 at this moment !"", ""order_number"": ""16931448891421550539J"", ""awb"": ""10047429282"", ""success"": false}]}"
16931477906801762223J,xpressbees_jio,"{""AWBNo"": ""145917851900688"", ""ReturnCode"": 103, ""ReturnMessage"": ""Drop pincode not serviceable"", ""TokenNumber"": null}"
16931553842301081651J,ecom_jio,"{""shipments"": [{""reason"": ""Pickup is not operational on pincode 678556 at this moment !"", ""order_number"": ""16931553842301081651J"", ""awb"": ""3212657303"", ""success"": false}]}"
16931966946091162731J,xpressbees_jio,"{""AWBNo"": ""145917851900689"", ""ReturnCode"": 103, ""ReturnMessage"": ""Drop pincode not serviceable"", ""TokenNumber"": null}"
16932019828491106557J,ecom_jio,"{""shipments"": [{""reason"": ""Delivery is not operational on pincode 686563 at this moment !"", ""order_number"": ""16932019828491106557J"", ""awb"": ""10047426077"", ""success"": false}]}"
16932025042401532808J,xpressbees_jio,"{""AWBNo"": ""145917851900691"", ""ReturnCode"": 103, ""ReturnMessage"": ""Drop pincode not serviceable"", ""TokenNumber"": null}"
16932045033991090857J,delhivery_jio,"{""cash_pickups_count"": 0.0, ""package_count"": 1, ""upload_wbn"": ""UPL4207905678508576126"", ""replacement_count"": 0, ""rmk"": ""An internal Error has occurred, Please get in touch with client.support@delhivery.com"", ""pickups_count"": 0, ""packages"": [{""status"": ""Fail"", ""client"": ""JIOMART3P SURFACE"", ""sort_code"": null, ""remarks"": [""Crashing while saving package due to exception '600004 is non serviceable pincode'. Package might have been partially saved.""], ""waybill"": """", ""cod_amount"": 469.0, ""payment"": ""COD"", ""serviceable"": false, ""refnum"": ""96991331865117259524""}], ""cash_pickups"": 0.0, ""cod_count"": 0, ""success"": false, ""prepaid_count"": 0, ""cod_amount"": 0.0}"
16932080767391870789J,xpressbees_jio,"{""AWBNo"": ""145917851900692"", ""ReturnCode"": 103, ""ReturnMessage"": ""Drop pincode not serviceable"", ""TokenNumber"": null}"
16932083423501920139J,xpressbees_jio,"{""AWBNo"": ""145917851900694"", ""ReturnCode"": 103, ""ReturnMessage"": ""Drop pincode not serviceable"", ""TokenNumber"": null}"
16932105226191103943J,ecom_jio,"{""shipments"": [{""reason"": ""Pickup is not operational on pincode 641671 at this moment !"", ""order_number"": ""16932105226191103943J"", ""awb"": ""3215754315"", ""success"": false}]}"
16932118873471117703J,xpressbees_jio,"{""AWBNo"": ""145917851900695"", ""ReturnCode"": 103, ""ReturnMessage"": ""Drop pincode not serviceable"", ""TokenNumber"": null}"
16932118874491338341J,xpressbees_jio,"{""AWBNo"": ""145917851900696"", ""ReturnCode"": 103, ""ReturnMessage"": ""Drop pincode not serviceable"", ""TokenNumber"": null}"
16932132434481121445J,xpressbees_jio,"{""AWBNo"": ""145917851900701"", ""ReturnCode"": 103, ""ReturnMessage"": ""Drop pincode not serviceable"", ""TokenNumber"": null}"
16932140132251419913J,delhivery_jio,"{""cash_pickups_count"": 0.0, ""package_count"": 1, ""upload_wbn"": ""UPL16263564464612788580"", ""replacement_count"": 0, ""rmk"": ""An internal Error has occurred, Please get in touch with client.support@delhivery.com"", ""pickups_count"": 0, ""packages"": [{""status"": ""Fail"", ""client"": ""JIOMART3P SURFACE"", ""sort_code"": null, ""remarks"": [""Crashing while saving package due to exception '175124 is non serviceable pincode'. Package might have been partially saved.""], ""waybill"": """", ""cod_amount"": 695.0, ""payment"": ""COD"", ""serviceable"": false, ""refnum"": ""77258083648867236894""}], ""cash_pickups"": 0.0, ""cod_count"": 0, ""success"": false, ""prepaid_count"": 0, ""cod_amount"": 0.0}"
16932140133521564333J,delhivery_jio,"{""cash_pickups_count"": 0.0, ""package_count"": 1, ""upload_wbn"": ""UPL7177113961386690649"", ""replacement_count"": 0, ""rmk"": ""An internal Error has occurred, Please get in touch with client.support@delhivery.com"", ""pickups_count"": 0, ""packages"": [{""status"": ""Fail"", ""client"": ""JIOMART3P SURFACE"", ""sort_code"": null, ""remarks"": [""Crashing while saving package due to exception '175124 is non serviceable pincode'. Package might have been partially saved.""], ""waybill"": """", ""cod_amount"": 499.0, ""payment"": ""COD"", ""serviceable"": false, ""refnum"": ""95049700190714874347""}], ""cash_pickups"": 0.0, ""cod_count"": 0, ""success"": false, ""prepaid_count"": 0, ""cod_amount"": 0.0}"
16932160236981294669J,xpressbees_jio,"{""AWBNo"": ""145917851900697"", ""ReturnCode"": 103, ""ReturnMessage"": ""Drop pincode not serviceable"", ""TokenNumber"": null}"
16932163282511249199J,ecom_jio,"{""shipments"": [{""reason"": ""Delivery is not operational on pincode 486882 at this moment !"", ""order_number"": ""16932163282511249199J"", ""awb"": ""10047424354"", ""success"": false}]}"
16932165343791046303J,delhivery_jio,"{""cash_pickups_count"": 0, ""package_count"": 0, ""upload_wbn"": null, ""replacement_count"": 0, ""rmk"": ""Client-Warehouse is not active"", ""pickups_count"": 0, ""packages"": [], ""cash_pickups"": 0, ""cod_count"": 0, ""success"": false, ""prepaid_count"": 0, ""error"": true, ""cod_amount"": 0}"
16932195856371885222J,ecom_jio,"{""shipments"": [{""reason"": ""Delivery is not operational on pincode 486882 at this moment !"", ""order_number"": ""16932195856371885222J"", ""awb"": ""10047608252"", ""success"": false}]}"
16932207761371899311J,xpressbees_jio,"{""AWBNo"": ""145917851900700"", ""ReturnCode"": 103, ""ReturnMessage"": ""Drop pincode not serviceable"", ""TokenNumber"": null}"
16932216631451892496J,xpressbees_jio,"{""AWBNo"": ""145917851900704"", ""ReturnCode"": 103, ""ReturnMessage"": ""Drop pincode not serviceable"", ""TokenNumber"": null}"
16932220234211678649J,xpressbees_jio,"{""AWBNo"": ""145917851900702"", ""ReturnCode"": 103, ""ReturnMessage"": ""Pickup pincode not serviceable"", ""TokenNumber"": null}"
16932226581361950912J,xpressbees_jio,"{""AWBNo"": ""145917851900705"", ""ReturnCode"": 103, ""ReturnMessage"": ""Drop pincode not serviceable"", ""TokenNumber"": null}"
16932227117751853073J,xpressbees_jio,"{""AWBNo"": ""145917851900706"", ""ReturnCode"": 103, ""ReturnMessage"": ""Drop pincode not serviceable"", ""TokenNumber"": null}"
16932227119771588151J,xpressbees_jio,"{""AWBNo"": ""145917851900703"", ""ReturnCode"": 103, ""ReturnMessage"": ""Drop pincode not serviceable"", ""TokenNumber"": null}"
16932231669361935017J,xpressbees_jio,"{""AWBNo"": ""145917851900707"", ""ReturnCode"": 103, ""ReturnMessage"": ""Pickup pincode not serviceable"", ""TokenNumber"": null}"
16932250890181266668J,delhivery_jio,"{""cash_pickups_count"": 0.0, ""package_count"": 1, ""upload_wbn"": ""UPL5531462558528654249"", ""replacement_count"": 0, ""rmk"": ""An internal Error has occurred, Please get in touch with client.support@delhivery.com"", ""pickups_count"": 0, ""packages"": [{""status"": ""Fail"", ""client"": ""JIOMART3P SURFACE"", ""sort_code"": null, ""remarks"": [""Crashing while saving package due to exception '175001 is non serviceable pincode'. Package might have been partially saved.""], ""waybill"": """", ""cod_amount"": 179.0, ""payment"": ""COD"", ""serviceable"": false, ""refnum"": ""67921435903263657875""}], ""cash_pickups"": 0.0, ""cod_count"": 0, ""success"": false, ""prepaid_count"": 0, ""cod_amount"": 0.0}"
16932258440771830231J,xpressbees_jio,"{""AWBNo"": ""145917851900714"", ""ReturnCode"": 103, ""ReturnMessage"": ""Drop pincode not serviceable"", ""TokenNumber"": null}"
16932258441811202511J,xpressbees_jio,"{""AWBNo"": ""145917851900709"", ""ReturnCode"": 103, ""ReturnMessage"": ""Drop pincode not serviceable"", ""TokenNumber"": null}"
16932258443771073010J,xpressbees_jio,"{""AWBNo"": ""145917851900711"", ""ReturnCode"": 103, ""ReturnMessage"": ""Drop pincode not serviceable"", ""TokenNumber"": null}"
16932279859931135318J,ecom_jio,"{""shipments"": [{""reason"": ""Delivery is not operational on pincode 852221 at this moment !"", ""order_number"": ""16932279859931135318J"", ""awb"": ""3213029444"", ""success"": false}]}"
16932298153391764911J,xpressbees_jio,"{""AWBNo"": ""145917851900710"", ""ReturnCode"": 103, ""ReturnMessage"": ""Drop pincode not serviceable"", ""TokenNumber"": null}"
16932307736731115515J,xpressbees_jio,"{""AWBNo"": ""145917851900712"", ""ReturnCode"": 103, ""ReturnMessage"": ""Drop pincode not serviceable"", ""TokenNumber"": null}"
16932309171951392974J,xpressbees_jio,"{""AWBNo"": ""145917851900713"", ""ReturnCode"": 103, ""ReturnMessage"": ""Drop pincode not serviceable"", ""TokenNumber"": null}"
16932311112301873430J,xpressbees_jio,"{""AWBNo"": ""145917851900718"", ""ReturnCode"": 103, ""ReturnMessage"": ""Drop pincode not serviceable"", ""TokenNumber"": null}"
16932321655211174207J,xpressbees_jio,"{""AWBNo"": ""145917851900715"", ""ReturnCode"": 103, ""ReturnMessage"": ""Drop pincode not serviceable"", ""TokenNumber"": null}"
16932325830491589697J,ecom_jio,"{""shipments"": [{""reason"": ""Delivery is not operational on pincode 521403 at this moment !"", ""order_number"": ""16932325830491589697J"", ""awb"": ""10047603163"", ""success"": false}]}"
16932328491531505477J,xpressbees_jio,"{""AWBNo"": ""145917851900719"", ""ReturnCode"": 103, ""ReturnMessage"": ""Drop pincode not serviceable"", ""TokenNumber"": null}"
16932330766071822389J,xpressbees_jio,"{""AWBNo"": ""145917851900716"", ""ReturnCode"": 103, ""ReturnMessage"": ""Drop pincode not serviceable"", ""TokenNumber"": null}"
16932348017721126109J,shadowfax_jio,"{""message"": ""Failure"", ""errors"": ""Invalid Delivery Pincode. Pincode 411033 is not serviceble""}"
16932352891161076285J,xpressbees_jio,"{""AWBNo"": ""145917851900720"", ""ReturnCode"": 103, ""ReturnMessage"": ""Drop pincode not serviceable"", ""TokenNumber"": null}"
16932374370461621163J,xpressbees_jio,"{""AWBNo"": ""145917851900721"", ""ReturnCode"": 103, ""ReturnMessage"": ""Drop pincode not serviceable"", ""TokenNumber"": null}"
16932423747271052739J,xpressbees_jio,"{""AWBNo"": ""145917851900724"", ""ReturnCode"": 103, ""ReturnMessage"": ""Drop pincode not serviceable"", ""TokenNumber"": null}"
16932428225381133639J,xpressbees_jio,"{""AWBNo"": ""16932428225381133639J"", ""ReturnCode"": 103, ""ReturnMessage"": ""Drop EmailID is invalid"", ""TokenNumber"": null}"
16932435888661561520J,xpressbees_jio,"{""AWBNo"": ""145917851900728"", ""ReturnCode"": 103, ""ReturnMessage"": ""Pickup pincode not serviceable"", ""TokenNumber"": null}"
16932436303321077608J,xpressbees_jio,"{""AWBNo"": ""145917851900722"", ""ReturnCode"": 103, ""ReturnMessage"": ""Drop pincode not serviceable"", ""TokenNumber"": null}"
16932462720031809390J,delhivery_jio,"{""cash_pickups_count"": 0.0, ""package_count"": 1, ""upload_wbn"": ""UPL14975189870030309326"", ""replacement_count"": 0, ""rmk"": ""An internal Error has occurred, Please get in touch with client.support@delhivery.com"", ""pickups_count"": 0, ""packages"": [{""status"": ""Fail"", ""client"": ""JIOMART3P SURFACE"", ""sort_code"": null, ""remarks"": [""Crashing while saving package due to exception '600004 is non serviceable pincode'. Package might have been partially saved.""], ""waybill"": """", ""cod_amount"": 0.0, ""payment"": ""Pre-paid"", ""serviceable"": false, ""refnum"": ""57051937343825777668""}], ""cash_pickups"": 0.0, ""cod_count"": 0, ""success"": false, ""prepaid_count"": 0, ""cod_amount"": 0.0}"
16932466261401361411J,xpressbees_jio,"{""AWBNo"": ""145917851900732"", ""ReturnCode"": 103, ""ReturnMessage"": ""Drop pincode not serviceable"", ""TokenNumber"": null}"
16932467056541302408J,xpressbees_jio,"{""AWBNo"": ""145917851900725"", ""ReturnCode"": 103, ""ReturnMessage"": ""Drop pincode not serviceable"", ""TokenNumber"": null}"
16932467057491681888J,xpressbees_jio,"{""AWBNo"": ""145917851900726"", ""ReturnCode"": 103, ""ReturnMessage"": ""Drop pincode not serviceable"", ""TokenNumber"": null}"
16932472280571134748J,xpressbees_jio,"{""AWBNo"": ""145917851900729"", ""ReturnCode"": 103, ""ReturnMessage"": ""Drop pincode not serviceable"", ""TokenNumber"": null}"
16932481232361961114J,xpressbees_jio,"{""AWBNo"": ""145917851900727"", ""ReturnCode"": 103, ""ReturnMessage"": ""Drop pincode not serviceable"", ""TokenNumber"": null}"
16932486629821148938J,xpressbees_jio,"{""AWBNo"": ""145917851899346"", ""ReturnCode"": 103, ""ReturnMessage"": ""Drop pincode not serviceable"", ""TokenNumber"": null}"
16932488021341504261J,xpressbees_jio,"{""AWBNo"": ""145917851900735"", ""ReturnCode"": 103, ""ReturnMessage"": ""Drop pincode not serviceable"", ""TokenNumber"": null}"
16932516737391667857J,xpressbees_jio,"{""AWBNo"": ""145917851900730"", ""ReturnCode"": 103, ""ReturnMessage"": ""Drop pincode not serviceable"", ""TokenNumber"": null}"
16932620427381088909J,ecom_jio,"{""shipments"": [{""reason"": ""CONSIGNEE_PINCODE_NOT_SERVICED,"", ""order_number"": ""16932620427381088909J"", ""awb"": ""10047423892"", ""success"": false}]}"
16932769781491523815J,xpressbees_jio,"{""AWBNo"": ""145917851900731"", ""ReturnCode"": 103, ""ReturnMessage"": ""Drop pincode not serviceable"", ""TokenNumber"": null}"
16932774177331840008J,xpressbees_jio,"{""AWBNo"": ""145917851900734"", ""ReturnCode"": 103, ""ReturnMessage"": ""Drop pincode not serviceable"", ""TokenNumber"": null}"
16932777558341145978J,xpressbees_jio,"{""AWBNo"": ""145917851900745"", ""ReturnCode"": 103, ""ReturnMessage"": ""Drop pincode not serviceable"", ""TokenNumber"": null}"
16932793477241870389J,xpressbees_jio,"{""AWBNo"": ""145917851900733"", ""ReturnCode"": 103, ""ReturnMessage"": ""Drop pincode not serviceable"", ""TokenNumber"": null}"
16932823574561041239J,xpressbees_jio,"{""AWBNo"": ""145917851895843"", ""ReturnCode"": 103, ""ReturnMessage"": ""Drop pincode not serviceable"", ""TokenNumber"": null}"
16932827136761569404J,xpressbees_jio,"{""AWBNo"": ""145917851900738"", ""ReturnCode"": 103, ""ReturnMessage"": ""Drop pincode not serviceable"", ""TokenNumber"": null}"
16932830030541413931J,xpressbees_jio,"{""AWBNo"": ""145917851900736"", ""ReturnCode"": 103, ""ReturnMessage"": ""Drop pincode not serviceable"", ""TokenNumber"": null}"
16932852880091870630J,xpressbees_jio,"{""AWBNo"": ""16932852880091870630J"", ""ReturnCode"": 103, ""ReturnMessage"": ""Drop EmailID is invalid"", ""TokenNumber"": null}"
16932865149901247790J,ecom_jio,"{""shipments"": [{""reason"": ""Delivery is not operational on pincode 686563 at this moment !"", ""order_number"": ""16932865149901247790J"", ""awb"": ""3213033686"", ""success"": false}]}"
16932872249431754938J,xpressbees_jio,"{""AWBNo"": ""145917851900740"", ""ReturnCode"": 103, ""ReturnMessage"": ""Drop pincode not serviceable"", ""TokenNumber"": null}"
16932922234581820468J,xpressbees_jio,"{""AWBNo"": ""145917851900737"", ""ReturnCode"": 103, ""ReturnMessage"": ""Drop pincode not serviceable"", ""TokenNumber"": null}"
16932932581341501653J,xpressbees_jio,"{""AWBNo"": ""145917851900739"", ""ReturnCode"": 103, ""ReturnMessage"": ""Drop pincode not serviceable"", ""TokenNumber"": null}"
16932957172891898072J,xpressbees_jio,"{""AWBNo"": ""145917851900742"", ""ReturnCode"": 103, ""ReturnMessage"": ""Drop pincode not serviceable"", ""TokenNumber"": null}"
16932994117451346527J,ecom_jio,"{""shipments"": [{""reason"": ""Delivery is not operational on pincode 486882 at this moment !"", ""order_number"": ""16932994117451346527J"", ""awb"": ""10045036786"", ""success"": false}]}"
16933005936111321208J,xpressbees_jio,"{""AWBNo"": ""145917851900743"", ""ReturnCode"": 103, ""ReturnMessage"": ""Drop pincode not serviceable"", ""TokenNumber"": null}"
16933013592591427155J,xpressbees_jio,"{""AWBNo"": ""145917851900741"", ""ReturnCode"": 103, ""ReturnMessage"": ""Drop pincode not serviceable"", ""TokenNumber"": null}"
16933014699361497775J,ecom_jio,"{""shipments"": [{""reason"": ""Delivery is not operational on pincode 486882 at this moment !"", ""order_number"": ""16933014699361497775J"", ""awb"": ""10045042388"", ""success"": false}]}"
16933030116121323771J,xpressbees_jio,"{""AWBNo"": ""145917851898242"", ""ReturnCode"": 103, ""ReturnMessage"": ""Drop pincode not serviceable"", ""TokenNumber"": null}"
16933031041471915499J,xpressbees_jio,"{""AWBNo"": ""145917851897707"", ""ReturnCode"": 103, ""ReturnMessage"": ""Drop pincode not serviceable"", ""TokenNumber"": null}"
16933031042401049259J,xpressbees_jio,"{""AWBNo"": ""145917851895971"", ""ReturnCode"": 103, ""ReturnMessage"": ""Drop pincode not serviceable"", ""TokenNumber"": null}"
16933055054221206248J,xpressbees_jio,"{""AWBNo"": ""145917851897867"", ""ReturnCode"": 103, ""ReturnMessage"": ""Drop pincode not serviceable"", ""TokenNumber"": null}"
16933058791581373971J,delhivery_jio,"{""cash_pickups_count"": 0.0, ""package_count"": 1, ""upload_wbn"": ""UPL4549543793818486866"", ""replacement_count"": 0, ""rmk"": ""An internal Error has occurred, Please get in touch with client.support@delhivery.com"", ""pickups_count"": 0, ""packages"": [{""status"": ""Fail"", ""client"": ""JIOMART3P SURFACE"", ""sort_code"": null, ""remarks"": [""Crashing while saving package due to exception '363621 is non serviceable pincode'. Package might have been partially saved.""], ""waybill"": """", ""cod_amount"": 1799.0, ""payment"": ""COD"", ""serviceable"": false, ""refnum"": ""65383114305899235980""}], ""cash_pickups"": 0.0, ""cod_count"": 0, ""success"": false, ""prepaid_count"": 0, ""cod_amount"": 0.0}"
16933072416441752089J,xpressbees_jio,"{""AWBNo"": ""145917851900747"", ""ReturnCode"": 103, ""ReturnMessage"": ""Drop pincode not serviceable"", ""TokenNumber"": null}"
16933075471991539176J,ecom_jio,"{""shipments"": [{""reason"": ""Delivery is not operational on pincode 523303 at this moment !"", ""order_number"": ""16933075471991539176J"", ""awb"": ""10047428717"", ""success"": false}]}"
16933097753291851248J,ecom_jio,"{""shipments"": [{""reason"": ""Delivery is not operational on pincode 431542 at this moment !"", ""order_number"": ""16933097753291851248J"", ""awb"": ""10047424987"", ""success"": false}]}"
16933101028981961228J,xpressbees_jio,"{""AWBNo"": ""145917851897882"", ""ReturnCode"": 103, ""ReturnMessage"": ""Drop pincode not serviceable"", ""TokenNumber"": null}"
16933124105981512898J,xpressbees_jio,"{""AWBNo"": ""145917851900749"", ""ReturnCode"": 103, ""ReturnMessage"": ""Drop pincode not serviceable"", ""TokenNumber"": null}"
16933144219451716017J,xpressbees_jio,"{""AWBNo"": ""145917851898323"", ""ReturnCode"": 103, ""ReturnMessage"": ""Drop pincode not serviceable"", ""TokenNumber"": null}"
16933144220551755378J,xpressbees_jio,"{""AWBNo"": ""145917851900746"", ""ReturnCode"": 103, ""ReturnMessage"": ""Drop pincode not serviceable"", ""TokenNumber"": null}"
16933170055171368000J,xpressbees_jio,"{""AWBNo"": ""145917851896973"", ""ReturnCode"": 103, ""ReturnMessage"": ""Drop pincode not serviceable"", ""TokenNumber"": null}"
16933174201341643326J,xpressbees_jio,"{""AWBNo"": ""145917851895938"", ""ReturnCode"": 103, ""ReturnMessage"": ""Drop pincode not serviceable"", ""TokenNumber"": null}"
16933175095121941526J,ecom_jio,"{""shipments"": [{""reason"": ""CONSIGNEE_PINCODE_NOT_SERVICED,"", ""order_number"": ""16933175095121941526J"", ""awb"": ""10047427194"", ""success"": false}]}"
16933189448431830948J,xpressbees_jio,"{""AWBNo"": ""145917851900744"", ""ReturnCode"": 103, ""ReturnMessage"": ""Drop pincode not serviceable"", ""TokenNumber"": null}"
16933195830131941702J,delhivery_jio,"{""cash_pickups_count"": 0, ""package_count"": 0, ""upload_wbn"": null, ""replacement_count"": 0, ""rmk"": ""Client-Warehouse is not active"", ""pickups_count"": 0, ""packages"": [], ""cash_pickups"": 0, ""cod_count"": 0, ""success"": false, ""prepaid_count"": 0, ""error"": true, ""cod_amount"": 0}"
16933211979631488993J,xpressbees_jio,"{""AWBNo"": ""145917851895940"", ""ReturnCode"": 103, ""ReturnMessage"": ""Drop pincode not serviceable"", ""TokenNumber"": null}"
16933214729391826971J,xpressbees_jio,"{""AWBNo"": ""145917851899455"", ""ReturnCode"": 103, ""ReturnMessage"": ""Drop pincode not serviceable"", ""TokenNumber"": null}"
16933254935301899312J,xpressbees_jio,"{""AWBNo"": ""145917851897857"", ""ReturnCode"": 103, ""ReturnMessage"": ""Drop pincode not serviceable"", ""TokenNumber"": null}"
16933266901561105599J,ecom_jio,"{""shipments"": [{""reason"": ""Delivery is not operational on pincode 486882 at this moment !"", ""order_number"": ""16933266901561105599J"", ""awb"": ""10045034847"", ""success"": false}]}"
16933278407041014217J,delhivery_jio,"{""cash_pickups_count"": 0.0, ""package_count"": 1, ""upload_wbn"": ""UPL17459798463826641181"", ""replacement_count"": 0, ""rmk"": ""An internal Error has occurred, Please get in touch with client.support@delhivery.com"", ""pickups_count"": 0, ""packages"": [{""status"": ""Fail"", ""client"": ""JIOMART3P SURFACE"", ""sort_code"": null, ""remarks"": [""Crashing while saving package due to exception '600004 is non serviceable pincode'. Package might have been partially saved.""], ""waybill"": """", ""cod_amount"": 0.0, ""payment"": ""Pre-paid"", ""serviceable"": false, ""refnum"": ""34660916006977214771""}], ""cash_pickups"": 0.0, ""cod_count"": 0, ""success"": false, ""prepaid_count"": 0, ""cod_amount"": 0.0}"
16933280740061212031J,xpressbees_jio,"{""AWBNo"": ""145917851900748"", ""ReturnCode"": 103, ""ReturnMessage"": ""Drop pincode not serviceable"", ""TokenNumber"": null}"
16933280742191028288J,xpressbees_jio,"{""AWBNo"": ""145917851899500"", ""ReturnCode"": 103, ""ReturnMessage"": ""Drop pincode not serviceable"", ""TokenNumber"": null}"
16933282875401107199J,xpressbees_jio,"{""AWBNo"": ""16933282875401107199J"", ""ReturnCode"": 103, ""ReturnMessage"": ""Drop EmailID is invalid"", ""TokenNumber"": null}"
16933297172121343947J,xpressbees_jio,"{""AWBNo"": ""145917851898581"", ""ReturnCode"": 103, ""ReturnMessage"": ""Drop pincode not serviceable"", ""TokenNumber"": null}"
16933320533631094252J,xpressbees_jio,"{""AWBNo"": ""145917851900179"", ""ReturnCode"": 103, ""ReturnMessage"": ""Drop pincode not serviceable"", ""TokenNumber"": null}"
16933332214251652039J,xpressbees_jio,"{""AWBNo"": ""145917851899064"", ""ReturnCode"": 103, ""ReturnMessage"": ""Drop pincode not serviceable"", ""TokenNumber"": null}"
16933352629381340456J,xpressbees_jio,"{""AWBNo"": ""16933352629381340456J"", ""ReturnCode"": 103, ""ReturnMessage"": ""Drop EmailID is invalid"", ""TokenNumber"": null}"
16933360550071416289J,xpressbees_jio,"{""AWBNo"": ""145917851899901"", ""ReturnCode"": 103, ""ReturnMessage"": ""Drop pincode not serviceable"", ""TokenNumber"": null}"
16933397806481500383J,xpressbees_jio,"{""AWBNo"": ""145917851900173"", ""ReturnCode"": 103, ""ReturnMessage"": ""Drop pincode not serviceable"", ""TokenNumber"": null}"
16933445420901214565J,delhivery_jio,"{""cash_pickups_count"": 0, ""package_count"": 0, ""upload_wbn"": null, ""replacement_count"": 0, ""rmk"": ""Client-Warehouse is not active"", ""pickups_count"": 0, ""packages"": [], ""cash_pickups"": 0, ""cod_count"": 0, ""success"": false, ""prepaid_count"": 0, ""error"": true, ""cod_amount"": 0}"
16933528294991427915J,xpressbees_jio,"{""AWBNo"": ""145917851900292"", ""ReturnCode"": 103, ""ReturnMessage"": ""Drop pincode not serviceable"", ""TokenNumber"": null}"
16933528295871972661J,xpressbees_jio,"{""AWBNo"": ""145917851898098"", ""ReturnCode"": 103, ""ReturnMessage"": ""Drop pincode not serviceable"", ""TokenNumber"": null}"
16933528296771639150J,xpressbees_jio,"{""AWBNo"": ""145917851896567"", ""ReturnCode"": 103, ""ReturnMessage"": ""Drop pincode not serviceable"", ""TokenNumber"": null}"
16933618308001355548J,xpressbees_jio,"{""AWBNo"": ""145917851897391"", ""ReturnCode"": 103, ""ReturnMessage"": ""Drop pincode not serviceable"", ""TokenNumber"": null}"
16933648828291151990J,xpressbees_jio,"{""AWBNo"": ""145917851900437"", ""ReturnCode"": 103, ""ReturnMessage"": ""Drop pincode not serviceable"", ""TokenNumber"": null}"
16933705714951703213J,ecom_jio,"{""shipments"": [{""reason"": ""Delivery is not operational on pincode 852221 at this moment !"", ""order_number"": ""16933705714951703213J"", ""awb"": ""10047600062"", ""success"": false}]}"
16933719865261027800J,delhivery_jio,"{""cash_pickups_count"": 0.0, ""package_count"": 1, ""upload_wbn"": ""UPL7004191435935007427"", ""replacement_count"": 0, ""rmk"": ""An internal Error has occurred, Please get in touch with client.support@delhivery.com"", ""pickups_count"": 0, ""packages"": [{""status"": ""Fail"", ""client"": ""JIOMART3P SURFACE"", ""sort_code"": null, ""remarks"": [""Crashing while saving package due to exception '600004 is non serviceable pincode'. Package might have been partially saved.""], ""waybill"": """", ""cod_amount"": 270.0, ""payment"": ""COD"", ""serviceable"": false, ""refnum"": ""93898483777481241045""}], ""cash_pickups"": 0.0, ""cod_count"": 0, ""success"": false, ""prepaid_count"": 0, ""cod_amount"": 0.0}"
16933765382151856140J,xpressbees_jio,"{""AWBNo"": ""145917851900287"", ""ReturnCode"": 103, ""ReturnMessage"": ""Drop pincode not serviceable"", ""TokenNumber"": null}"
16933765383381789947J,xpressbees_jio,"{""AWBNo"": ""145917851900178"", ""ReturnCode"": 103, ""ReturnMessage"": ""Drop pincode not serviceable"", ""TokenNumber"": null}"
