shipment_id,awb_no,return_id,shipping_agent
16884582077681965077J,5714538682,16890849471451288822J,ecom_jio
16884589485871311557J,5713336822,16888909026531235365J,ecom_jio
16884580438531146530J,5709493881,16893253177051228419J,ecom_jio
16884625640481434754J,5714538589,16894017094791706521J,ecom_jio
16884613640081665582J,5713139171,16889621097681879418J,ecom_jio
16884616729001578111J,5714545035,16889115871751519739J,ecom_jio
16884662161311947052J,5714538324,16888748765341909869J,ecom_jio
16884670487251796555J,5714538344,16890478320291782187J,ecom_jio
16885223909571748207J,5713334419,16890613257151380842J,ecom_jio
16885241436931016154J,5710391675,16888258896951022073J,ecom_jio
16885305213521924496J,5714544869,16891477649781182262J,ecom_jio
16885310258781875680J,5711115099,16888956379141533192J,ecom_jio
16885331428381132781J,5713140501,16892492896831705142J,ecom_jio
16885341443241989508J,5714544345,16896653455671675276J,ecom_jio
16885761623381078314J,5713330200,16891398230161822925J,ecom_jio
16885763330221308105J,5710394733,16887262847791097507J,ecom_jio
16885778801461179280J,5713335528,16887124962431052295J,ecom_jio
16885787490671286411J,5709496589,16891666174631863114J,ecom_jio
16885790681751648440J,5725461866,16895029039541218062J,ecom_jio
16885815810201282935J,5713334827,16891679803021877005J,ecom_jio
16885828716821129086J,5708921642,16891516135041451168J,ecom_jio
16886445114621663332J,5710389023,16893333289021074194J,ecom_jio
16886453390141764357J,5708928710,16888118467231546445J,ecom_jio
16886463879291885686J,5713143396,16891360501221102965J,ecom_jio
16886478282861181741J,5714543976,16892747866851250242J,ecom_jio
16886514183681625528J,5714542598,16892278296501378394J,ecom_jio
16886536928401106715J,5714542817,16891585913791281675J,ecom_jio
16886573007271963867J,5713336158,16893304444321990028J,ecom_jio
16886608206501084578J,5709492500,16889783121901100191J,ecom_jio
16886616102861183615J,5714541182,16890635413711826062J,ecom_jio
16886615132411694169J,5709491560,16889822707771238233J,ecom_jio
16886632184991738307J,5714539389,16893618944971072101J,ecom_jio
16886629356901160147J,5713136305,16890948288221758760J,ecom_jio
16886643235491930749J,5714537748,16890402900791137862J,ecom_jio
16887086719871515462J,5713332426,16899616252041103287J,ecom_jio
16887097189391971347J,5714536624,16890688292471312457J,ecom_jio
16887102501231038150J,5713141250,16889695218951215615J,ecom_jio
16887142518691840118J,5713137694,16892437950461376838J,ecom_jio
16887148861541203687J,5711121800,16891419894441886233J,ecom_jio
16887152313081052464J,5711115851,16889674259831522164J,ecom_jio
16887166458921743570J,5710396404,16894011263241244416J,ecom_jio
16887168030611507356J,5714544673,16892201002771687092J,ecom_jio
16887185609971635405J,5714544405,16892464820051713654J,ecom_jio
16887227624711345795J,5709497180,16889925736721472083J,ecom_jio
16887235175531569237J,5725453650,16895854937721390693J,ecom_jio
16887260836531239186J,5713330255,16892324569601332393J,ecom_jio
16887304504271805437J,5711115562,16890649054501992366J,ecom_jio
16887792219441672919J,5711113915,16893925160901612104J,ecom_jio
16887806998331586462J,5709490754,16891251376221774161J,ecom_jio
16882144738781164608J,5714543799,16888809757141554311J,ecom_jio
16882227137101196612J,5711119317,16888203681231108666J,ecom_jio
16882233897371969332J,5714541325,16888278278201077283J,ecom_jio
16882754756321800761J,5713335585,16888032779251371139J,ecom_jio
16882766474241937989J,5713332936,16889962011381191611J,ecom_jio
16882848766441329739J,5714537694,16891327117021558705J,ecom_jio
16882933032561326374J,5708922435,16886687289471003354J,ecom_jio
16882967551211871505J,5711116884,16887213055411242767J,ecom_jio
16883010195311812480J,5710388776,16887336225411310327J,ecom_jio
16883056618891286433J,5709495663,16890991295721403420J,ecom_jio
16883126164071121988J,R590410973JIM,16886682780351469995J,shadowfax_jio
16883128827861299416J,5713333844,16890436471531453164J,ecom_jio
16883581888361184345J,5713137530,16890046654571262094J,ecom_jio
16883581888361184345J,5710392902,16890485377321252621J,ecom_jio
16883621963391948211J,5713144668,16893026518171071871J,ecom_jio
16883699780001579961J,5713334948,16887257604551391751J,ecom_jio
16883708868921276180J,5714543686,16888307924841759928J,ecom_jio
16883738269421591386J,5713138011,16890804904161888093J,ecom_jio
16883745755081562905J,11576182025870,16895890421831799063J,delhivery_jio
16883751858661811107J,5709491058,16889682035771022360J,ecom_jio
16884723586801296063J,5711121403,16890391413921556516J,ecom_jio
16884814660141308283J,5710392542,16887316203631219991J,ecom_jio
16884857421611196650J,5710393791,16889713135871869889J,ecom_jio
16884933201281227367J,5714539345,16890484275061843961J,ecom_jio
16884932544261991891J,5713335551,16889854720131956434J,ecom_jio
16885423469881216287J,5714540268,16887994291331036912J,ecom_jio
16885425701881242878J,5714538960,16890560291061641214J,ecom_jio
16885628450461207815J,5714538361,16891656596371656381J,ecom_jio
16885627695611881659J,5714539371,16890750153301540738J,ecom_jio
16885631197101682883J,5713330419,16890828957441969644J,ecom_jio
16885675104631995534J,5713141748,16890554444331006015J,ecom_jio
16885676776391424292J,5713337034,16890568170391763580J,ecom_jio
16885677374621752831J,5713139487,16893009305491616608J,ecom_jio
16885710689901869191J,5713142421,16893077966371768818J,ecom_jio
16885758688421134028J,5710390866,16887338300461600655J,ecom_jio
16886120671911292474J,5711122313,16889910051241025867J,ecom_jio
16886279871541076146J,5713136807,16889758848671595417J,ecom_jio
16886321932991199951J,5713333104,16902032284891730310J,ecom_jio
16886370699281940184J,5713144542,16896416409031313166J,ecom_jio
16886732791351335861J,5714541639,16890162129471075753J,ecom_jio
16886865675871389939J,5714543396,16890585042801100027J,ecom_jio
16886940569451425960J,5711119942,16893248088991976653J,ecom_jio
16887061495361722509J,5713332091,16890646895491837761J,ecom_jio
16887063045471333555J,5710391865,16891413173911921337J,ecom_jio
16887466445761535401J,5714542253,16894160936421114306J,ecom_jio
16887511083891015339J,5713337718,16890862602251500641J,ecom_jio
16887680819321681015J,5714543415,16890615033741937629J,ecom_jio
16882159901101131768J,5713336831,16888118979231352148J,ecom_jio
16882239884771957060J,5709492191,16890105922831963693J,ecom_jio
16882323789161389993J,5714536016,16887151473641259591J,ecom_jio
16882782460051536935J,5713136868,16888205305401437319J,ecom_jio
16882869057151545784J,5711120138,16887337965141673695J,ecom_jio
16882894884141904392J,5711120458,16887329206691240568J,ecom_jio
16882959077811589877J,5710391262,16891226692171249156J,ecom_jio
16882976761691253955J,5714541051,16889576553411744468J,ecom_jio
16883568626841110683J,5713141339,16888876787671291537J,ecom_jio
16883606165581952651J,5714543915,16887213426761574140J,ecom_jio
16883718799051873536J,5714540440,16888309685191208594J,ecom_jio
16883732028271013347J,5710397360,16887094078171938209J,ecom_jio
16884057194531646755J,5713140880,16887064590971977823J,ecom_jio
16884425562801412210J,5713333117,16888916182811813167J,ecom_jio
16884753449681721323J,5714539621,16890574746391051139J,ecom_jio
16884755927011266250J,5708919301,16889969292191558082J,ecom_jio
16885004551121645875J,5714545866,16894818046191681990J,ecom_jio
16885086032001437956J,5713339834,16892373725071506725J,ecom_jio
16885359749551456278J,5708928619,16890532027291985468J,ecom_jio
16885403870391038208J,5713338969,16890615268951652384J,ecom_jio
16885556816811037432J,5713335114,16887371173661320172J,ecom_jio
16885580161041566360J,5713139542,16890115057961643690J,ecom_jio
16885603166291723024J,5709496202,16889607460941202263J,ecom_jio
16885641702561073681J,5709496254,16890515266831230134J,ecom_jio
16886143180141750675J,5714535977,16890000339421051316J,ecom_jio
16886258248211327519J,5713334783,16892570705881154344J,ecom_jio
16886271524541092114J,5710395213,16889611526251223610J,ecom_jio
16886668714481785223J,5714545427,16893561504931210171J,ecom_jio
16886681419751860028J,5713143743,16890834702031847050J,ecom_jio
16887359993431404640J,5713333931,16889753453821888436J,ecom_jio
16887420651671810015J,5711113869,16890559978731098562J,ecom_jio
16887500022661240226J,5713335116,16893178499571640995J,ecom_jio
16887500013601847319J,5711117360,16890713277231675799J,ecom_jio
16887538505291134232J,5714536405,16895807939761174918J,ecom_jio
16882258520101436573J,5713140658,16888305067281381124J,ecom_jio
16882939197041366000J,5714538513,16888828575191037039J,ecom_jio
16882950031551126305J,5713337530,16888282244811751629J,ecom_jio
16882950031551126305J,5713332404,16888282864511165356J,ecom_jio
16882950031551126305J,5713137713,16888283461541245288J,ecom_jio
16882950031551126305J,5713145200,16888284117831314387J,ecom_jio
16883107953891915770J,5714536113,16887981368091019461J,ecom_jio
16884088921661083929J,5714545054,16887184003871757246J,ecom_jio
16884841253541191759J,5713330163,16887294695921991527J,ecom_jio
16884858998031055045J,5708926016,16888881237641662851J,ecom_jio
16885602865341225217J,24591793433612,16894785145021754474J,xpressbees_jio
16886141911351322111J,5725454872,16896026924391520687J,ecom_jio
16886144437931054817J,5713142037,16890647423361096590J,ecom_jio
16886311180511237768J,5713337438,16889830997351564301J,ecom_jio
16886314037481676131J,5713337254,16895750086751362511J,ecom_jio
16887038232911898039J,5714538156,16892154421281903368J,ecom_jio
16882259103081097977J,5713140090,16889905444041765513J,ecom_jio
16882737491001435875J,5711120104,16887298971831192188J,ecom_jio
16882793822521233202J,5711113481,16887311912121142117J,ecom_jio
16884946776101245624J,5725454800,16894806212891379922J,ecom_jio
16885359532911455658J,5713333303,16890466160001471490J,ecom_jio
16885456407861970808J,5713136412,16889846332201691384J,ecom_jio
16885740848501919242J,5714543529,16889070167051790503J,ecom_jio
16886172377841474600J,5714538401,16891365523381113474J,ecom_jio
16886721044081099114J,5713144751,16889678913981580979J,ecom_jio
16887414132611426228J,5710392059,16891534759181159246J,ecom_jio
16883731228601012021J,5711118044,16888094489251931063J,ecom_jio
16884294429161518481J,5710397881,16888800025571948274J,ecom_jio
16886721196541895988J,5714542112,16889817466121672007J,ecom_jio
16882120575321078874J,5713144485,16888797487111536091J,ecom_jio
16882770907421835383J,5713334381,16891563518171158727J,ecom_jio
16885359058851543587J,5709492716,16891535290321709763J,ecom_jio
16885720263061800691J,5709494248,16889908882711400102J,ecom_jio
16887457781041326361J,5713141436,16897492650381573169J,ecom_jio
16882944401631580563J,11576179862041,16888194098541355247J,delhivery_jio
16883550902481296851J,5714536600,16887163317161704392J,ecom_jio
16883774429381521480J,5711120415,16887790376461016414J,ecom_jio
16884827094321765373J,5713144312,16897415892191186607J,ecom_jio
16887562321671666655J,5713333094,16891481105571603512J,ecom_jio
16883069449611368284J,5713338455,16889938881271501252J,ecom_jio
16885730247471717670J,5713333579,16889070778091237369J,ecom_jio
16887442150231461375J,5713139604,16892624859231845674J,ecom_jio
16884951455241915032J,5710389399,16888850575561808459J,ecom_jio
16882983232291673738J,5711121788,16889891755401638046J,ecom_jio
16883121614031386235J,5714543297,16893053776961798621J,ecom_jio
16887420368471610097J,5713339767,16890453905351281366J,ecom_jio
16881784961701238266J,5714541359,16888024556771262893J,ecom_jio
16881748813081255677J,5711117114,16887123473501429532J,ecom_jio
16881917061131655800J,11576179125722,16884479471671382238J,delhivery_jio
16881935214591048927J,5713331359,16887853525561412750J,ecom_jio
16881935214591048927J,5710394484,16888095047661512834J,ecom_jio
16881910234861802236J,5714536354,16890547720521452103J,ecom_jio
16881999030031094637J,5714542550,16887082147561539594J,ecom_jio
16882038442051877390J,R590410966JIM,16889916016061910656J,shadowfax_jio
16882057125071588325J,5713334506,16888098038211173653J,ecom_jio
16887874040261738341J,5711117211,16890479844081404760J,ecom_jio
16887857726861002186J,5714542506,16892563477241049265J,ecom_jio
16887904606581381378J,5710390213,16891360411121519329J,ecom_jio
16887947947571016530J,5714538935,16891600151181828030J,ecom_jio
16888399944841504810J,5709490963,16893344004991180154J,ecom_jio
16888381831531168110J,5713140997,16892701383331320199J,ecom_jio
16888479432291241305J,5725455711,16895028981121356975J,ecom_jio
16887999073181263389J,5725459108,16894218145401866215J,ecom_jio
16888010751611880719J,5714538273,16892436793381620242J,ecom_jio
16888041246641912321J,5711117595,16894090042961385268J,ecom_jio
16888088709661427723J,5714535956,16894235445871624365J,ecom_jio
16888088709661427723J,5725458914,16894236259491987113J,ecom_jio
16888094221901390656J,5711117796,16894020213381141798J,ecom_jio
16888172154311190875J,5710388433,16894069813331019260J,ecom_jio
16888204762891289684J,5714542113,16892340609221664113J,ecom_jio
16888212961141363796J,5714540515,16892731376231329167J,ecom_jio
16888285735241197626J,5725458180,16898456768531656317J,ecom_jio
16888297133481114474J,24591793436271,16896943650441922705J,xpressbees_jio
16888112573341784017J,5713136398,16893153034961984113J,ecom_jio
16888229947111595686J,5714545338,16893291870741536327J,ecom_jio
16888268665671765250J,5713142611,16894909688321499551J,ecom_jio
16888307052801841641J,5725458643,16895328960241956727J,ecom_jio
16888321999481672063J,5714542203,16894936617941475220J,ecom_jio
16888218036261009503J,5725453262,16895115331531494148J,ecom_jio
16888114179561425280J,5713335789,16891642061731499525J,ecom_jio
16888141772471323302J,5713333444,16893942217201523460J,ecom_jio
16888238110351499014J,5713141702,16894962138951803667J,ecom_jio
16888776028921989531J,5714544592,16892458981851608942J,ecom_jio
16888779391771775012J,5713332040,16893146363011296523J,ecom_jio
16888784975521191211J,5713140819,16893153641571869291J,ecom_jio
16888830639591425655J,24591793433524,16894434558541793125J,xpressbees_jio
16888858470861739341J,5713139105,16892559722351098250J,ecom_jio
16888864913551993080J,5713139547,16892250885371701038J,ecom_jio
16888867708171783171J,5725458471,16895079649251418749J,ecom_jio
16888901377451055061J,5709490763,16892419086281784805J,ecom_jio
16888901377451055061J,5713330237,16892419578541087306J,ecom_jio
16888913277171579585J,5711120722,16892707544131145065J,ecom_jio
16888951435511145994J,5713141817,16893337798671568280J,ecom_jio
16888984170871844729J,5725454466,16894604129881568067J,ecom_jio
16889022992141829380J,5710398134,16894169105241510179J,ecom_jio
16889033544521960582J,5725455102,16895642022821974447J,ecom_jio
16889034141951826647J,5713137875,16896970991821196089J,ecom_jio
16889036076851247636J,5713331356,16893205570641644578J,ecom_jio
16888678056351560163J,5713333381,16892378276811638262J,ecom_jio
16888847020221301665J,5714540315,16893492460271924764J,ecom_jio
16888931023601034370J,5713140715,16891412353421220204J,ecom_jio
16888668789301135227J,5714545601,16891658853011147508J,ecom_jio
16888668811351238989J,5713339140,16892632588581631347J,ecom_jio
16888799493131405554J,5709497467,16897665124311436344J,ecom_jio
16888853248911870598J,5713332369,16897818147091527071J,ecom_jio
16888891514231403751J,5713336724,16893933942951121630J,ecom_jio
16889014469541086492J,5713338366,16892203317461693760J,ecom_jio
16888876692571741055J,5708924770,16893321412781149309J,ecom_jio
16888675864611771544J,5709495020,16896863907231606220J,ecom_jio
16888958951881146547J,5714541737,16894208578931672973J,ecom_jio
16889041174621973847J,5714537028,16892566150641289571J,ecom_jio
16889047989141085782J,5713336975,16891764691331107748J,ecom_jio
16889154083321652604J,5711121157,16892981541311616210J,ecom_jio
16889185723871701325J,5713338586,16891453449591587437J,ecom_jio
16889212908131524197J,5725454042,16895656902921772635J,ecom_jio
16889211622521288316J,5714544006,16894142954241398504J,ecom_jio
16889224542411751147J,5725462029,16893977641101979185J,ecom_jio
16889229849171800454J,5713336012,16897838901481172904J,ecom_jio
16889254199561421458J,5710391683,16893031777801441063J,ecom_jio
16889520644691869487J,5711119098,16891293539911442811J,ecom_jio
16889523057401559081J,5711122862,16894865536271853504J,ecom_jio
16889407084921226891J,5708926394,16890598924551646905J,ecom_jio
16889666088081135791J,5713336413,16895787329001019622J,ecom_jio
16889378079391150563J,5714538761,16892282632431750097J,ecom_jio
16889575956881604694J,5711114108,16891710839601967245J,ecom_jio
16889534141541476888J,5713140289,16891628792021375653J,ecom_jio
16889714248101151726J,5713336914,16898492990781271416J,ecom_jio
16889715801451184282J,5709494203,16892210670631562432J,ecom_jio
16889728229341967007J,5713333773,16891539063371384899J,ecom_jio
16889758210991469128J,5713139048,16893175903911929531J,ecom_jio
16889757377581969538J,5725458647,16894220277901305879J,ecom_jio
16889808617491869287J,5713138645,16894384336361000967J,ecom_jio
16889824991451222136J,5725455709,16896028951741048464J,ecom_jio
16889818255081152294J,5725452319,16894036214431281845J,ecom_jio
16889851248191330303J,5711120896,16894385083341339631J,ecom_jio
16889853900571618844J,5725453362,16895020285431860412J,ecom_jio
16889868294661933562J,5713144531,16893310987041960919J,ecom_jio
16889887024321614273J,5713140080,16893203023021552879J,ecom_jio
16889913555641796733J,5725461373,16897792721281687076J,ecom_jio
16889966946591586419J,11576180608016,16893069152861465150J,delhivery_jio
16889976309471771276J,5725460373,16899332959501554547J,ecom_jio
16890017122941982701J,5710396492,16893247711011611109J,ecom_jio
16890100089571024236J,5725457004,16895794183891132590J,ecom_jio
16890182130801374178J,5709495564,16894058373721184894J,ecom_jio
16890222538891316655J,5725453531,16896921690941492671J,ecom_jio
16890303277661786454J,5713138213,16893373704281901922J,ecom_jio
16889958089191477286J,5709495193,16894849546091386419J,ecom_jio
16890037248061766156J,5714537447,16892653928061479475J,ecom_jio
16890073209691009786J,5713140114,16894910711531965041J,ecom_jio
16890073209691009786J,5713333289,16894911105451944298J,ecom_jio
16890083391411467215J,5713144401,16897545602691603279J,ecom_jio
16889986702061437824J,5713336326,16894917302041883069J,ecom_jio
16890184444411272839J,5714541401,16894877309721607836J,ecom_jio
16890159131531513334J,5714545449,16894448384071308298J,ecom_jio
16889995758571647021J,5710395868,16892325140791753947J,ecom_jio
16890023138271641577J,24591793432403,16893506391331867382J,xpressbees_jio
16890421214381752925J,5713139827,16891734999831340699J,ecom_jio
16890449902651310488J,5713337295,16898264184701258879J,ecom_jio
16890440276321242209J,R590374233JIM,16895842138991570890J,shadowfax_jio
16890492449431156359J,5725453870,16895061189921952263J,ecom_jio
16890504347761657830J,5714538437,16895569824731120098J,ecom_jio
16890566951861912898J,5713336893,16894946670361888314J,ecom_jio
16890564131481133178J,5714539724,16895170377841554713J,ecom_jio
16890567908641893180J,5713335808,16894943623131507111J,ecom_jio
16890631739861166731J,5711118551,16894748769221975873J,ecom_jio
16890671150491262823J,11576180666621,16893247796371286760J,delhivery_jio
16890705199671012178J,5725458396,16895688358101294154J,ecom_jio
16890715518101674976J,5713137452,16894201806871046991J,ecom_jio
16890715514211709900J,5713336674,16897591049051874517J,ecom_jio
16890752379211799802J,5713141545,16895076086301505442J,ecom_jio
16890796120531333537J,5709493050,16895935443701928582J,ecom_jio
16890906657201596714J,5713139550,16895818340061985407J,ecom_jio
16890906410881598177J,5714540836,16894531370941393180J,ecom_jio
16890913742361775955J,5710394137,16896631879031772219J,ecom_jio
16890954616641918088J,5714536592,16895727002601157378J,ecom_jio
16890961119541493721J,5725459513,16896711255031816652J,ecom_jio
16890994656891177481J,5710388326,16895758422891878249J,ecom_jio
16890595316951002446J,5713136864,16892429694631590710J,ecom_jio
16890677001051133363J,5714535974,16896090206731344813J,ecom_jio
16890779626331845530J,5725455462,16894417309831131314J,ecom_jio
16890856373461139615J,5725453345,16893960342591325546J,ecom_jio
16890933126681618520J,5713338970,16894143087091650402J,ecom_jio
16890979617311688703J,5725460579,16894230862051397651J,ecom_jio
16890615321971568593J,5725454145,16895258675011863396J,ecom_jio
16890757880881252505J,5713139283,16896051145311606280J,ecom_jio
16890932800371806550J,5725456059,16894072545031259339J,ecom_jio
16890642006341625217J,5711115797,16895683064681016890J,ecom_jio
16890811775811661206J,5725452394,16896001433531617019J,ecom_jio
16890921522561338746J,5711113489,16893288994461127584J,ecom_jio
16890655743781265346J,24591793435932,16896738480261947179J,xpressbees_jio
16890737693121112705J,5709490731,16898423374691876748J,ecom_jio
16890844830851889437J,5713333201,16897806550251632411J,ecom_jio
16890844830851889437J,5714539408,16897816268161116388J,ecom_jio
16890767392211611050J,5713145459,16895226528131852043J,ecom_jio
16890767399211635527J,5725459875,16895222127211639930J,ecom_jio
16890776387771789898J,5725457359,16895167964371422654J,ecom_jio
16890816864291822053J,5725458183,16897670886361299071J,ecom_jio
16891359931291818740J,5709496121,16895895637231205300J,ecom_jio
16891405416401643293J,5711113955,16897400786631755650J,ecom_jio
16891409590911545813J,5725452875,16894047377671286241J,ecom_jio
16891409590911545813J,5725453752,16894066726161882001J,ecom_jio
16891409590911545813J,5710389643,16894067570381230877J,ecom_jio
16891439340671620489J,5711115043,16893893723621722355J,ecom_jio
16891490270411148675J,5725457664,16895012325381884492J,ecom_jio
16891521073721896570J,5714539205,16895255497031594991J,ecom_jio
16891534809681833495J,5714545830,16894361090551712062J,ecom_jio
16891570716501032144J,5713338499,16895705679491144915J,ecom_jio
16891643266481644375J,5725461112,16894756428571914067J,ecom_jio
16891348392571613023J,5711115543,16897407633461179563J,ecom_jio
16891376339871296760J,5725457775,16894838898281484768J,ecom_jio
16891415994861281658J,5713338026,16895065794101530772J,ecom_jio
16891636274181617421J,5713141641,16895059878771347454J,ecom_jio
16891584740601365558J,5725457245,16896684458841173477J,ecom_jio
16891269155861481554J,5709498985,16895699650581001975J,ecom_jio
16891600019941950372J,5725461454,16900101021451708503J,ecom_jio
16891664761361089629J,5725456632,16898558446191036516J,ecom_jio
16891664761361089629J,5725454337,16898558619481809345J,ecom_jio
16891706154281105119J,5711119751,16893327486501121568J,ecom_jio
16891706154281105119J,5713334278,16893327629101563794J,ecom_jio
16891702710221104680J,5713332349,16893477201561147225J,ecom_jio
16891728026121151295J,5725454448,16896061220431463782J,ecom_jio
16891806275531990914J,5714540674,16895027872081798999J,ecom_jio
16891789344681997012J,5725459700,16898412532951743920J,ecom_jio
16891784837631224765J,5725458196,16896782347201574633J,ecom_jio
16891844987221700029J,5725455138,16895873702501981123J,ecom_jio
16891842576351705030J,5713332720,16894219085791314592J,ecom_jio
16891853019371347447J,5713142765,16894220755561032731J,ecom_jio
16891865201201699614J,5725455341,16897022703951894802J,ecom_jio
16891893165131153298J,5710391221,16895925827421364542J,ecom_jio
16892230174791634278J,5713332183,16897717110351461424J,ecom_jio
16892131137821698908J,5725453355,16896524698631907814J,ecom_jio
16892194958621763672J,5714543535,16894325766731486060J,ecom_jio
16892200443541260025J,5725456788,16898564377701916803J,ecom_jio
16892238899431363988J,5725460349,16902760521261973350J,ecom_jio
16892274673421593849J,5713339035,16898281055061158834J,ecom_jio
16892282010751103263J,5725458977,16897875128351144061J,ecom_jio
16892285163651031279J,5725457467,16895826187901670647J,ecom_jio
16891917258341204895J,5714545471,16895125069641163847J,ecom_jio
16892358915491077025J,5725458577,16896906896641448167J,ecom_jio
16892375495221584030J,5713144529,16898739507501763610J,ecom_jio
16892385075161523533J,5714543417,16895879106441103666J,ecom_jio
16892448535281231357J,5725458187,16896589035671752943J,ecom_jio
16892494443241863820J,5725455223,16896866611351322240J,ecom_jio
16892495021211482558J,5708924855,16894288183331017523J,ecom_jio
16892495021211482558J,5713334289,16894288740421625318J,ecom_jio
16892500662281693380J,5725453182,16897617029181448318J,ecom_jio
16892505387181675565J,5725452301,16898622178781675531J,ecom_jio
16892526395371632625J,5714537499,16897098435681049700J,ecom_jio
16893034305821949155J,5709489234,16898564704211584531J,ecom_jio
16893060448341904363J,5714537348,16898554600421114763J,ecom_jio
16893059162631630858J,5713329957,16895941280721461221J,ecom_jio
16893115269901882417J,5711115681,16896968530031139665J,ecom_jio
16893153834131440311J,5713142122,16896541567851170113J,ecom_jio
16893160828661786649J,5713139284,16906994085951387383J,ecom_jio
16894282124231260125J,5710391094,16898297464931415325J,ecom_jio
16894303992631092925J,5708924922,16902051747081677363J,ecom_jio
16894281032831216848J,24591793437261,16897960894861753707J,xpressbees_jio
16894358957451922655J,5725455918,16895779740641894903J,ecom_jio
16894416618631879739J,5725453239,16900021477841776757J,ecom_jio
16894408646561325742J,5725457169,16906170370631323256J,ecom_jio
16894432929271017429J,5709490393,16898732262391844795J,ecom_jio
16894444271891641951J,5725454358,16901334903251430989J,ecom_jio
16894457847081631244J,5708927071,16900997386171884256J,ecom_jio
16894506719081936645J,5725454117,16898511538361366912J,ecom_jio
16894506726091078135J,5713330397,16898513478321661853J,ecom_jio
16894952130401693797J,5725458366,16899289165301017687J,ecom_jio
16894952130401693797J,5725455011,16899292713841624660J,ecom_jio
16894964196251207171J,5714542390,16899474809261040587J,ecom_jio
16894969919671846163J,5713335846,16900224631201712492J,ecom_jio
16894977939211826216J,5714539139,16900392515191713278J,ecom_jio
16894984552271190899J,5713338102,16899218514381185289J,ecom_jio
16894994129361333464J,5710392213,16900355307981276472J,ecom_jio
16895016148411606749J,5725457497,16897779287931162537J,ecom_jio
16895021603071642255J,5711119571,16898484269401160088J,ecom_jio
16895033596261389801J,5713335201,16900227697351509503J,ecom_jio
16895018481831627945J,5711117160,16901846423561167887J,ecom_jio
16895084752901476090J,5713332989,16898270764691775313J,ecom_jio
16895127937191351275J,5713332070,16902887447951102044J,ecom_jio
16895130813891560165J,5725458810,16899431916161192415J,ecom_jio
16895131752531556532J,5708923000,16899569124161918458J,ecom_jio
16895142288851609423J,5725460459,16898616581891275368J,ecom_jio
16895167575321267758J,5713135649,16897394012441599343J,ecom_jio
16895175058321010492J,5710395550,16897667434991993367J,ecom_jio
16895618092281619747J,5713140060,16899500321771962534J,ecom_jio
16895636524341371652J,5714545849,16897556426971887362J,ecom_jio
16895634492041945552J,5725452771,16898376396411128316J,ecom_jio
16895677331761177272J,5713330799,16898637977891361223J,ecom_jio
16895686382891681431J,5708926624,16900925379591841766J,ecom_jio
16895685686671998581J,5725461686,16902762559401655378J,ecom_jio
16895762432541046018J,5714538059,16898483247071488828J,ecom_jio
16895759926951956256J,5714545170,16901904843041793819J,ecom_jio
16895788847171171630J,5725452695,16902794866441803976J,ecom_jio
16895793410241040089J,5710397376,16902211991061016822J,ecom_jio
16895793201171305472J,5725458071,16901902201291698642J,ecom_jio
16895821967381639236J,5713135615,16901861520181114664J,ecom_jio
16895832171821263511J,5713332767,16899372294481672634J,ecom_jio
16895835739691971133J,5725452635,16902059206881606755J,ecom_jio
16896449150151707579J,5713339478,16899978346791630124J,ecom_jio
16896927277411506549J,5710389075,16899445294601162193J,ecom_jio
16896941193011988605J,5725457857,16900393559191368359J,ecom_jio
16896964665491521467J,5713333137,16904566192011184579J,ecom_jio
16896960223141987897J,5725460717,16900369931101690200J,ecom_jio
16896945044541800811J,5713336403,16898487581781269738J,ecom_jio
16896988474841445188J,5711119306,16899217163811902161J,ecom_jio
16896995963791550580J,5711122608,16902070892551649456J,ecom_jio
16897044215971590593J,5725456481,16906084314981503442J,ecom_jio
16897040068671120527J,5725459343,16901020978071661747J,ecom_jio
16897099380241309720J,5714539791,16901868013961956688J,ecom_jio
16897572050291080710J,11576182438833,16906075705401565976J,delhivery_jio
16897582961621117957J,5725460496,16900310573501555915J,ecom_jio
16897586886331877492J,5714535963,16901065773571100649J,ecom_jio
16897610741601384370J,5725458457,16900813082351433459J,ecom_jio
16897621172681274578J,5713138016,16906045882021599854J,ecom_jio
16897634154461643795J,5713142606,16905451098381700217J,ecom_jio
16897649228481491581J,24591793443875,16906211613581086556J,xpressbees_jio
16897678849441808199J,5714538232,16907036285101221197J,ecom_jio
16897689077251365838J,24591793444525,16906536447301431206J,xpressbees_jio
16897741706861105879J,5725460480,16902572569841147833J,ecom_jio
16897723767601711214J,5725458879,16902656440071270898J,ecom_jio
16897741501681941903J,24591793440366,16902068602281438160J,xpressbees_jio
16897785401341553954J,5713335265,16900323771901945283J,ecom_jio
16898247232521322331J,5725452052,16901824440291983292J,ecom_jio
16898258737331839053J,5713144064,16905626918941535031J,ecom_jio
16898280808591587241J,5713141399,16900232548301532621J,ecom_jio
16898301044901823073J,5713141508,16904622574661017102J,ecom_jio
16898310287261992965J,5725459907,16906495288371695108J,ecom_jio
16898326223801780109J,24591793442720,16905449054191113202J,xpressbees_jio
16898327897531507162J,5725461003,16904737051871281965J,ecom_jio
16898337075211443676J,5713137872,16902752111381825136J,ecom_jio
16898385791131613851J,5714542879,16902528862371413996J,ecom_jio
16898398200361976722J,5713140485,16903018657491828834J,ecom_jio
16898376208721017949J,5713336200,16902755185561037816J,ecom_jio
16898415763231894950J,5709493948,16905919182481786960J,ecom_jio
16898416008931917620J,5711123157,16902891209441622736J,ecom_jio
16898452105111227101J,5725456234,16906198278141030642J,ecom_jio
16899057323891866335J,5725459923,16905594047621004896J,ecom_jio
16899088911641090613J,5725453941,16905536998361008344J,ecom_jio
16899100617421166838J,5714544266,16907856889621204138J,ecom_jio
16899112583201737458J,5713143101,16905934865701158133J,ecom_jio
16892589165641725891J,5711116406,16895883450961754408J,ecom_jio
16892639603861483283J,5725457330,16898577449351016999J,ecom_jio
16892718034131523409J,5711120377,16898519648681833515J,ecom_jio
16893322436331285031J,5714545622,16897781682751120397J,ecom_jio
16893326345301251318J,5713138483,16895146232171266358J,ecom_jio
16893490692361134215J,5710390008,16898652381301081864J,ecom_jio
16893500701501314939J,5725458170,16900283513771914054J,ecom_jio
16893527327131277081J,5710396412,16896644999191132237J,ecom_jio
16893978341651564302J,5710394477,16899244024531667225J,ecom_jio
16893986535541893055J,5713337776,16898219995801303093J,ecom_jio
16894192937621337533J,5714539379,16901046968551968633J,ecom_jio
16894196524641274275J,5725460599,16902945002101976075J,ecom_jio
16894197030381309504J,5714542318,16900833496951477134J,ecom_jio
16894719491451244601J,5725456136,16896639284831542729J,ecom_jio
16894766945841474867J,5710389732,16899360404281597169J,ecom_jio
16894798374401494853J,5714544002,16897515417831479255J,ecom_jio
16894920668711046420J,5725454122,16898445580031553751J,ecom_jio
16894924148251925306J,5713337698,16898314287521907775J,ecom_jio
16894924978121877627J,5714540083,16896931687551660984J,ecom_jio
16895251784871156846J,5725453723,16899177347421280175J,ecom_jio
16895298514861600179J,5725452647,16900854851811806378J,ecom_jio
16895582289501954507J,5725453164,16898614390231212156J,ecom_jio
16895906946601981394J,5714540116,16900250021341714892J,ecom_jio
16895952458601077549J,5713339750,16901810709051585166J,ecom_jio
16895988075921658721J,5714541375,16902121606441048459J,ecom_jio
16895993124501044478J,5713331415,16899497241211485379J,ecom_jio
16896038275671394691J,5725453372,16899607777511337926J,ecom_jio
16896109648901854888J,5713338791,16901837989061812013J,ecom_jio
16896114074611320222J,5713338861,16899320458451712918J,ecom_jio
16896114417711909128J,5711119618,16899280882301145544J,ecom_jio
16896114424611565952J,5708923990,16899280124911355796J,ecom_jio
16896567197291265271J,5714544642,16899194197611654262J,ecom_jio
16896605296531357642J,5725460327,16897993775611596802J,ecom_jio
16896809557621193825J,5714545496,16899392531491662094J,ecom_jio
16896812845231589490J,5725457064,16900139844581053063J,ecom_jio
16897378383431278573J,5713331499,16902893478241894564J,ecom_jio
16897383815641720763J,5714545526,16902580322751862525J,ecom_jio
16897462113311338767J,5710394732,16901872524111865486J,ecom_jio
16897504183631826010J,5725460055,16902687706401705344J,ecom_jio
16897839569361314709J,5725459908,16901902494641537879J,ecom_jio
16897952292241974382J,5714539420,16901905217531024178J,ecom_jio
16897954192941742340J,5725459876,16901744200541299031J,ecom_jio
16897954514411133109J,5713331444,16907837137081007206J,ecom_jio
16897958153601279900J,5713331893,16901598061761018591J,ecom_jio
16898210540591762001J,5725453235,16901387516701103629J,ecom_jio
16898490912601679045J,5714542908,16901215376431804602J,ecom_jio
16898533483261296163J,5710392631,16901845040271957155J,ecom_jio
16898692319801860591J,5710388559,16901049697181414163J,ecom_jio
16898825644841730920J,5725455437,16903056517431575690J,ecom_jio
16892684680531087058J,5710395393,16902131906281465279J,ecom_jio
16893468146931438300J,5714544310,16897528572441651794J,ecom_jio
16893470702551609028J,5713330483,16899992116571136444J,ecom_jio
16893516322791077441J,5725460140,16904257690821934063J,ecom_jio
16894092359901727307J,5725455953,16898578859891887763J,ecom_jio
16894122907651555985J,5725461903,16900301908821862686J,ecom_jio
16894241228931135556J,5711118653,16899190431861888869J,ecom_jio
16894673491461500376J,5725452762,16897669069111264087J,ecom_jio
16894755301951597019J,5713144866,16904785847311546793J,ecom_jio
16895356656131764491J,5710394479,16905660829881367241J,ecom_jio
16895395707401399040J,R604217099JIM,16909040715601641908J,shadowfax_jio
16895935729211629392J,5710396446,16901031856841014339J,ecom_jio
16896014724691901800J,5725458618,16905485257931299603J,ecom_jio
16896844339751614743J,5713139291,16898465453441711938J,ecom_jio
16897827407881667364J,5725460835,16900910249881725574J,ecom_jio
16897827407881667364J,5725454657,16900910427261087914J,ecom_jio
16897853173601987773J,5725458422,16902992582701330717J,ecom_jio
16897853173601987773J,5711117099,16902994136721597502J,ecom_jio
16897939745611340252J,5725456900,16908271270271299344J,ecom_jio
16898459243231580585J,11576181755725,16901409449671088480J,delhivery_jio
16898582712241848571J,5714541718,16901747377711192938J,ecom_jio
16898664740491763888J,5714542408,16906023610441673763J,ecom_jio
16898664729901114429J,5713142982,16901999956291272950J,ecom_jio
16898664735951357544J,5713336929,16901999413851316998J,ecom_jio
16898679814921914054J,5714544062,16910450202391339593J,ecom_jio
16898725975661385654J,5725461941,16906244556711668740J,ecom_jio
16898807807971727345J,5709496551,16902650516231849984J,ecom_jio
16892563205891444418J,5725457691,16900804907411378329J,ecom_jio
16892568308431443978J,24591793446284,16908058702381265270J,xpressbees_jio
16892647956201554082J,5709498232,16897429311081669499J,ecom_jio
16892691324941714434J,5725461059,16896696141791682847J,ecom_jio
16893340771821631656J,5713135650,16897001686631172946J,ecom_jio
16893348771211377899J,5711115799,16901760221201746242J,ecom_jio
16893587484551282987J,5725461814,16896554471631601109J,ecom_jio
16893876461421093916J,5714543905,16895699178761424238J,ecom_jio
16894244149561446124J,5710391389,16901782209161727816J,ecom_jio
16894546228881808257J,11576181616985,16900060495521100550J,delhivery_jio
16894854547651461299J,5725460849,16901162591621427166J,ecom_jio
16895287324061234260J,5713339461,16897465212041730330J,ecom_jio
16895360767591289354J,5725453766,16898295568151076456J,ecom_jio
16895398718631865308J,5725457150,16898446397821206400J,ecom_jio
16896016142281410946J,5725458955,16898357772901775678J,ecom_jio
16896618031251040761J,5713336438,16900926835881344760J,ecom_jio
16896656278881554345J,5714539714,16906096213071181704J,ecom_jio
16897455676191335209J,5725455003,16903377583321148478J,ecom_jio
16897480288281108453J,5713137042,16904802812881800182J,ecom_jio
16898458233551057566J,24591793443990,16906258127961015546J,xpressbees_jio
16898626689611579075J,5713335010,16903769820661530018J,ecom_jio
16898672939831077986J,5714538916,16908159526051944952J,ecom_jio
16898680432301702891J,5714536893,16902953779771297376J,ecom_jio
16898719363911596611J,5725459135,16902880178791013976J,ecom_jio
16892662623741548734J,5710388728,16902597589601223276J,ecom_jio
16893926433591889399J,5725453220,16896594065461614460J,ecom_jio
16893993307541015932J,5710392564,16897527205541566136J,ecom_jio
16894009459671573815J,5714536881,16897779126291637273J,ecom_jio
16895936191111073108J,R600061422JIM,16904387892701205957J,shadowfax_jio
16896494116641607198J,5714538690,16899340810441667107J,ecom_jio
16896617829601761451J,5713333036,16901175633471027579J,ecom_jio
16896802602721799829J,24591793439470,16901038003161497060J,xpressbees_jio
16897410640501985090J,5708925057,16907687029351785485J,ecom_jio
16897815748411828958J,5714537194,16903001050981879965J,ecom_jio
16897857471271807679J,5710393076,16901782923051873715J,ecom_jio
16898581952361167024J,5710389865,16901153917401978975J,ecom_jio
16898720096561682342J,5725457871,16905471037101657719J,ecom_jio
16893597651631689196J,5725455757,16898378281781015439J,ecom_jio
16894218970871893254J,5725456442,16896717572881962711J,ecom_jio
16895192208251617033J,5713142078,16899221464511662118J,ecom_jio
16896057329011545673J,5713332863,16899232279921078302J,ecom_jio
16896126738111866641J,5725456536,16903424754931579891J,ecom_jio
16893476874241698147J,5725460795,16903834937841285344J,ecom_jio
16893597309421818572J,11576181027655,16895964921601350155J,delhivery_jio
16896171575601167870J,5725453153,16900920108681396270J,ecom_jio
16897929250961039313J,5710392184,16904365303541680507J,ecom_jio
16897816349821616764J,5713337807,16903886529101672996J,ecom_jio
16896760506161703691J,5725458399,16901185776971752176J,ecom_jio
16898598812591050936J,5714536071,16906286332631649281J,ecom_jio
16892648979341685697J,5713336665,16896074986321869376J,ecom_jio
16895285855511011304J,5713339177,16897808929311938961J,ecom_jio
16898522607261090295J,5713339893,16906319066771247720J,ecom_jio
16896627736561106002J,5725453704,16901060031881953728J,ecom_jio
16897887374271782730J,5725452399,16899350836891732346J,ecom_jio
16899143861061684348J,5713332700,16903906012681875489J,ecom_jio
16899272924391793153J,5713330669,16907156508511794220J,ecom_jio
16899386902341189750J,24591793446387,16908101430931113302J,xpressbees_jio
16899428218471558144J,5713338085,16906415535121961528J,ecom_jio
16899429790611405165J,5713140248,16909462270181896855J,ecom_jio
16899435904851819587J,5714543050,16906308154081960215J,ecom_jio
16899337770961586335J,5711115795,16904375677801225232J,ecom_jio
16899447545251205908J,5714545312,16909952731851260414J,ecom_jio
16899484160841634760J,5710391450,16905474279351260551J,ecom_jio
16899195174241434790J,5710390388,16901772644801159705J,ecom_jio
16899331316311626161J,5725456665,16904563657931611824J,ecom_jio
16899503004461378322J,5713143885,16915761608351990983J,ecom_jio
16899121682361026623J,5713144036,16901034330831940427J,ecom_jio
16899240962261254729J,5725461215,16907089954661472663J,ecom_jio
16899290928241925882J,5725456604,16903678233451858344J,ecom_jio
16899159283721578475J,5713337716,16906418101971148343J,ecom_jio
16899291051981894639J,5713338161,16903867133331050191J,ecom_jio
16899381800771625039J,5709495234,16903708676771364138J,ecom_jio
16899410960021611965J,5713144021,16905549675661294480J,ecom_jio
16899129819951934470J,24591793442465,16905253830731370611J,xpressbees_jio
16899133860851042165J,24591793446094,16907965378751039723J,xpressbees_jio
16899538178941033254J,5725454705,16906037779511049442J,ecom_jio
16899543584351320595J,5713140799,16903720475001628241J,ecom_jio
16899546958671200395J,5711118160,16907725282891088822J,ecom_jio
16899583830681435284J,5711118945,16907426437821195192J,ecom_jio
16899606837831542496J,24591793451313,16912243038511731023J,xpressbees_jio
16899664246831473361J,5710392971,16906334184951199388J,ecom_jio
16899690847321574481J,5725459328,16904373224921049448J,ecom_jio
16899968244251256149J,5725454495,16905972786181030559J,ecom_jio
16900004108081400394J,5714544779,16904575704061543292J,ecom_jio
16900005438701093396J,5711113783,16905568415581514381J,ecom_jio
16900046019121540387J,5713142972,16902855957601009207J,ecom_jio
16900046019121540387J,5725460312,16902856295951111965J,ecom_jio
16900051253931267137J,5725456242,16907191236621112160J,ecom_jio
16900175820251098926J,5710393967,16902459101401470762J,ecom_jio
16900100475631096846J,5711118524,16907465689321315194J,ecom_jio
16899996639211177325J,5710393740,16904545892741580755J,ecom_jio
16900019670701363902J,24591793447292,16908908876021254302J,xpressbees_jio
16900079103481688087J,5714541598,16901776394771689793J,ecom_jio
16900097359491385311J,5714537933,16907283766451882976J,ecom_jio
16900179651611984609J,5725454630,16906595091981169547J,ecom_jio
16900204808501318478J,5725460841,16906880869341502363J,ecom_jio
16900243631941391787J,5725457521,16905350584801865247J,ecom_jio
16900246528461765754J,5710398100,16905163427941319250J,ecom_jio
16900246528461765754J,5714539258,16905171884821968523J,ecom_jio
16900246528461765754J,5713138931,16905172813201062879J,ecom_jio
16900246528461765754J,5725458455,16905173349191797590J,ecom_jio
16900246528461765754J,5714539260,16905173734381481736J,ecom_jio
16900246528461765754J,5713332061,16905174378371372976J,ecom_jio
16900248962861728621J,R599570260JIM,16903848867591769876J,shadowfax_jio
16900248962861728621J,R600797643JIM,16905343750351721814J,shadowfax_jio
16900252241921512567J,5713142052,16906073549101011965J,ecom_jio
16900255866081498266J,5725459402,16904557442451688159J,ecom_jio
16900273059541760819J,5714543191,16906175211921721082J,ecom_jio
16900337991561319676J,R601720780JIM,16907163636811572700J,shadowfax_jio
16900352434061470616J,5725455801,16907112307941527578J,ecom_jio
16900348082781246995J,5708920192,16907974579121919200J,ecom_jio
16900399820941398362J,24591793447019,16908788726731845931J,xpressbees_jio
16900400748601293247J,5713335005,16905727881511913633J,ecom_jio
16900423401861030399J,5713141582,16903898517091942318J,ecom_jio
16900502859001096972J,5710391246,16906011800001244908J,ecom_jio
16900662115341329977J,5725452724,16905646891361476706J,ecom_jio
16900665150861460936J,5725459771,16909695803651939387J,ecom_jio
16900792055901455753J,5708927040,16907917019471745438J,ecom_jio
16900825599231250812J,5713141423,16907938012841490635J,ecom_jio
16900427910701673160J,5713333059,16907128145921734210J,ecom_jio
16900426873801798402J,5713138410,16906403292331921447J,ecom_jio
16900806425921317899J,5713330605,16904726397941140768J,ecom_jio
16900431395841760221J,R604820855JIM,16909968075401202864J,shadowfax_jio
16900521528611575331J,5725457192,16906096832241770065J,ecom_jio
16900482625661791252J,5708923482,16902750754991534119J,ecom_jio
16900917696551909089J,5709490857,16912097304581904117J,ecom_jio
16900936542471652712J,5714537907,16906247835241790346J,ecom_jio
16900948064581827705J,5725454973,16906405653811455341J,ecom_jio
16900971870391405851J,5713330029,16908737905291494464J,ecom_jio
16900987825781257248J,5725452712,16914048834001583800J,ecom_jio
16901004010841116102J,24591793447968,16909593420151697242J,xpressbees_jio
16901006825681324435J,R604771988JIM,16909861744121662515J,shadowfax_jio
16901038498321635138J,5713337543,16904322900061348009J,ecom_jio
16901071038281421213J,5709492399,16907783183861231928J,ecom_jio
16901072592311310209J,24591793454322,16914961325321010546J,xpressbees_jio
16901111618411757787J,5713332930,16905726838471322296J,ecom_jio
16901188755851181624J,5725461685,16906114574411786748J,ecom_jio
16901192834991435279J,24591793444980,16907058268231082178J,xpressbees_jio
16901239686621813093J,5725459011,16904216905721009981J,ecom_jio
16901272550581351235J,24591793449243,16910593153091342899J,xpressbees_jio
16901317578511149894J,5709498750,16907247953441030598J,ecom_jio
16901122107141130464J,5714535976,16906204983431872042J,ecom_jio
16901142197811197061J,5725452956,16904605966111069608J,ecom_jio
16901172879801088725J,5714539052,16909582388821520771J,ecom_jio
16901181431401482208J,5710390965,16908039664281103730J,ecom_jio
16901206921031434463J,5714537103,16906311233381738352J,ecom_jio
16901211542111834625J,5725454851,16906110984901774423J,ecom_jio
16901375233061174670J,5714543596,16907885173861515007J,ecom_jio
16901380698381133542J,5725453051,16905157479981306568J,ecom_jio
16901380698381133542J,5714545087,16905158350091289749J,ecom_jio
16901126225871020646J,5710397990,16907766240471352075J,ecom_jio
16901167679341907271J,5713336801,16903844268681630620J,ecom_jio
16901209794771762018J,5709492057,16904602131771786470J,ecom_jio
16901386498351630451J,5725459252,16904410380941632460J,ecom_jio
16901253982701156550J,5725454000,16907284349281624187J,ecom_jio
16901618519921706029J,5725453560,16912312285581457517J,ecom_jio
16901665025921222782J,24591793449682,16910834500161970503J,xpressbees_jio
16901691038591895493J,5725461529,16909107940851426627J,ecom_jio
16901711459591511568J,5725454756,16904717858381553217J,ecom_jio
16901814565271202811J,5713144392,16908814523811759377J,ecom_jio
16901892717581496434J,5725456081,16907062429511640748J,ecom_jio
16901892923911052279J,11576182534696,16906977514131115202J,delhivery_jio
16901926427121110527J,24591793444243,16906371409611810978J,xpressbees_jio
16901930603651757097J,24591793451737,16912447227671423512J,xpressbees_jio
16901935068121621850J,5714539599,16907318643001560946J,ecom_jio
16902006386241300215J,5725461737,16916816364501112124J,ecom_jio
16902049250221542429J,5725452057,16907259825361695162J,ecom_jio
16902089902561049519J,5711119794,16905305760981832436J,ecom_jio
16901818305971155610J,5725452652,16911654092651142870J,ecom_jio
16901838925161878692J,5725454440,16912428813651044538J,ecom_jio
16901948850631606218J,5711120601,16909756129891551999J,ecom_jio
16902033393831576890J,24591793442076,16904549302751609666J,xpressbees_jio
16902041595901179495J,11576182236625,16904487183601926112J,delhivery_jio
16902069646651003613J,5713334480,16910768684221546236J,ecom_jio
16901758834851121139J,5709496083,16906494900901601793J,ecom_jio
16901779008801002007J,5710390168,16906976491401628476J,ecom_jio
16901990880601153671J,5708924766,16906330000601238189J,ecom_jio
16901998824411461340J,5725455949,16910554705961368014J,ecom_jio
16901748072451367828J,24591793456984,16917434676531900904J,xpressbees_jio
16901798954871676976J,5725459783,16905284721561392263J,ecom_jio
16901875399581876819J,5710394276,16906346149581474110J,ecom_jio
16901791416681314906J,5708925950,16905204944681919209J,ecom_jio
16901919124791474643J,5725456350,16907296380491352760J,ecom_jio
16901919124791474643J,5710397789,16907296573471280218J,ecom_jio
16901840226971471095J,5711118144,16905212762421686921J,ecom_jio
16902149105081282253J,5725455644,16904334604621369823J,ecom_jio
16902183560341097268J,5725455087,16910737891561239230J,ecom_jio
16902205870801372601J,5709492939,16911268071771941189J,ecom_jio
16902211245311189122J,5713138149,16915844793281586522J,ecom_jio
16902233381911056278J,5713144671,16906342121131941137J,ecom_jio
16902235755741955220J,5725456483,16908990758861923813J,ecom_jio
16902247196481942036J,5714537576,16905465681231677828J,ecom_jio
16902342127311332522J,5725459710,16910535247311387841J,ecom_jio
16902623502091202236J,5713335597,16907610088101372632J,ecom_jio
16902627553811774603J,5725453655,16909552165671408300J,ecom_jio
16902635498811420283J,5725457059,16906856270271971811J,ecom_jio
16902665840181644576J,11576183290873,16911545898291926825J,delhivery_jio
16902671876641200125J,5713140446,16909916102981663903J,ecom_jio
16902671876641200125J,5713334930,16909917102321326914J,ecom_jio
16902706156311802271J,5714543486,16906239843551305209J,ecom_jio
16902791962421771905J,5709495290,16907771586111391267J,ecom_jio
16902447967461165887J,5711120230,16907171340211488292J,ecom_jio
16902678521321365860J,5710394259,16906973450691017419J,ecom_jio
16902742678751880595J,5713145451,16906122735681096374J,ecom_jio
16902783508981261816J,5711121065,16906170356191849236J,ecom_jio
16902449545341992970J,5708920027,16910799384721904237J,ecom_jio
16902638562851899629J,5725459421,16907886527491746250J,ecom_jio
16902728960341634220J,5714542578,16911208055801114007J,ecom_jio
16902692676991426277J,5713144183,16910466565901264436J,ecom_jio
16902695914521989539J,5710390554,16909723644461852621J,ecom_jio
16902559400821352311J,5714543207,16910677331321609451J,ecom_jio
16902758427281159402J,5709490370,16910554147341019944J,ecom_jio
16902646894841870846J,5714543666,16910763842961898595J,ecom_jio
16902810380311358909J,5725454960,16909649355811132385J,ecom_jio
16902848027551479587J,24591793451795,16912480084051400559J,xpressbees_jio
16902842909731506442J,5714542269,16912341274171995803J,ecom_jio
16902867344431362224J,5714540950,16905427789741076234J,ecom_jio
16902869181101301911J,24591793447246,16908892111451864870J,xpressbees_jio
16902905424911309446J,24591793448913,16910435565691153618J,xpressbees_jio
16902904845851823685J,5725461816,16908010520211717495J,ecom_jio
16902907521661389570J,5725460434,16910729961221797424J,ecom_jio
16902941916231273408J,24591793447412,16908959457851419708J,xpressbees_jio
16902949207551545834J,5713333653,16910852704781406051J,ecom_jio
16902961124081864488J,5714539611,16907168175121394656J,ecom_jio
16902973092231162705J,5710390620,16910505959491424650J,ecom_jio
16902975944831895635J,5713331878,16911259888961695713J,ecom_jio
16903020931981812974J,5725459696,16910680934151483571J,ecom_jio
16903457803231224397J,5725459769,16911243592591087358J,ecom_jio
16903492341311215881J,5725452764,16910032350791641546J,ecom_jio
16903510060651056155J,24591793456256,16910418553321813013J,xpressbees_jio
16903541296221307331J,5713137202,16911699677181803080J,ecom_jio
16903675565511415803J,5725460818,16908728696651496769J,ecom_jio
16903675564601427960J,11576182848134,16908928326461869648J,delhivery_jio
16903671139241906773J,5725455108,16909014304621280668J,ecom_jio
16903673010201042123J,5725461706,16910439595031376801J,ecom_jio
16903673186211632376J,5713331685,16911512751601150615J,ecom_jio
16903676948941642840J,5713141645,16908184562481756432J,ecom_jio
16903676860651505882J,5713139937,16910745345771820572J,ecom_jio
16903674876401851698J,5710396983,16909967646201872431J,ecom_jio
16903692034451562649J,5714539338,16910413943741555482J,ecom_jio
16904139640011107652J,5713334688,16907391687231092069J,ecom_jio
16904185926701526091J,5713336980,16908848100681305452J,ecom_jio
16904211453101752327J,5725453009,16911518639941759245J,ecom_jio
16904239442591055544J,5711113890,16909692744001879533J,ecom_jio
16904307467021087762J,5713137060,16908644644841746708J,ecom_jio
16904339322771101099J,5725457028,16907861058461511475J,ecom_jio
16904344060331735951J,5713338405,16912984253911125512J,ecom_jio
16904772133821678875J,5713141897,16909861066331723757J,ecom_jio
16904792435691266078J,5711120107,16913895512091437520J,ecom_jio
16904799451101720830J,24591793448209,16909696508141853993J,xpressbees_jio
16904804349901594260J,R605338550JIM,16910699406341757191J,shadowfax_jio
16904818299761380139J,5725455654,16910824303291392970J,ecom_jio
16904829084091151106J,R606009474JIM,16911518291061499280J,shadowfax_jio
16904829480461106909J,5708920838,16908301123421972455J,ecom_jio
16905429586771995790J,5725454879,16906589411921829861J,ecom_jio
16905494152571584522J,5725456614,16910619054891173121J,ecom_jio
16905496355261208904J,24591793453742,16914631885591854374J,xpressbees_jio
16905516974281864372J,5725455282,16912991754811709289J,ecom_jio
16905561626831119235J,24591793450918,16912051774591561020J,xpressbees_jio
16905549464221830829J,24591793455098,16915707359611724840J,xpressbees_jio
16905545022341517683J,11576183978531,16916391677321879510J,delhivery_jio
16905557975771571240J,5711117003,16911172043331956759J,ecom_jio
16905575691331108614J,5711117040,16911294690161585427J,ecom_jio
16905576853831723724J,5725457421,16912170425371089510J,ecom_jio
16905594210531180155J,5711114482,16911258636841622681J,ecom_jio
16905620420251683241J,5711119675,16913789351011868501J,ecom_jio
16905622670221958962J,5725459761,16908892790691970365J,ecom_jio
16905648595991407689J,5713330478,16912976462421148380J,ecom_jio
16905647231911375123J,5710393899,16910800891161619720J,ecom_jio
16905657138231758752J,5725460791,16907957517231619211J,ecom_jio
16906096585511988430J,5713140688,16913799316471329773J,ecom_jio
16906095389221383057J,5713139891,16910773547711618037J,ecom_jio
16906089318471196564J,5711117932,16910535549341445619J,ecom_jio
16906099585791201069J,24591793455692,16916321504561901430J,xpressbees_jio
16906126705531214155J,5725461192,16912331501431639287J,ecom_jio
16906137920261960391J,5713137590,16910525791351587526J,ecom_jio
16906130439311358511J,5711115051,16910533440761946622J,ecom_jio
16906122914681121054J,24591793451877,16912547505271582879J,xpressbees_jio
16906145514541572267J,24591793451555,16912357419881687593J,xpressbees_jio
16906208644541037545J,5713333013,16911407196051049980J,ecom_jio
16906211524161803128J,24591793450539,16911558539651026400J,xpressbees_jio
16906221176601458841J,5725458310,16915184587781855809J,ecom_jio
16906242378701420820J,5709494957,16912351308741916561J,ecom_jio
16906257080851600089J,24591793457899,16918190371431870263J,xpressbees_jio
16906296583801123181J,5725458072,16913217177171438511J,ecom_jio
16906285051811969309J,5713329962,16910725437681862230J,ecom_jio
16903122535351019676J,24591793447028,16908795337541421055J,xpressbees_jio
16903154364221336194J,5725453822,16909102805891103739J,ecom_jio
16903243110451016227J,24591793446589,16908189944251951535J,xpressbees_jio
16903327799251237397J,24591793446005,16907929252381283408J,xpressbees_jio
16903368424901317383J,5713338818,16911123611911203024J,ecom_jio
16903752504561497694J,5714540259,16907788089351185387J,ecom_jio
16903778957601088791J,5713142821,16909796101401798506J,ecom_jio
16903779541061356263J,R604755473JIM,16909806024411816956J,shadowfax_jio
16903780714891176777J,5725458412,16912289331071562843J,ecom_jio
16903812423851828722J,R605256208JIM,16910504468011290944J,shadowfax_jio
16903857688691611561J,24591793447466,16908985876091043981J,xpressbees_jio
16903890199261300078J,5725461673,16909752201911280475J,ecom_jio
16903896199601308104J,5709499025,16907855882181985110J,ecom_jio
16903897445261179748J,5725459586,16907882002491536669J,ecom_jio
16903901309381106694J,5713140006,16909657641661729117J,ecom_jio
16903931427791707147J,5713139030,16912651855261091897J,ecom_jio
16904059118231629620J,5714541895,16908244496451089615J,ecom_jio
16904392286841896554J,5725457779,16909860842191315996J,ecom_jio
16904465434451458544J,5711121692,16910419724961491599J,ecom_jio
16904509127831968339J,24591793459561,16919425894721134185J,xpressbees_jio
16904546383591475674J,5725458447,16909799967971634231J,ecom_jio
16904554679131797112J,5725455649,16908587093541289161J,ecom_jio
16904627579361947732J,5725454659,16910634148091935571J,ecom_jio
16904631330831133528J,5725458635,16907275700241578221J,ecom_jio
16904669016241173536J,5711121726,16908872142711636364J,ecom_jio
16904677225421181802J,5709495935,16910802739321147296J,ecom_jio
16904677225421181802J,5713332542,16910803983321170641J,ecom_jio
16904712672571625799J,5711119830,16908756443311272690J,ecom_jio
16904759731901756845J,5708920142,16907940629721105645J,ecom_jio
16904763031721815752J,24591793446363,16908093083011876023J,xpressbees_jio
16905170487271893049J,5725455502,16907770355601853429J,ecom_jio
16905208139261097875J,24591793451929,16912640146171451562J,xpressbees_jio
16905210694131882461J,5725459734,16911288349391162782J,ecom_jio
16905285143631833855J,5714540853,16910616622431003125J,ecom_jio
16905285532851006718J,5714539078,16907999226741815746J,ecom_jio
16905291207861278641J,5714538813,16911162669421680290J,ecom_jio
16905295855301290518J,5714544520,16910567511101922273J,ecom_jio
16905376495391266417J,5714540660,16912016794111282965J,ecom_jio
16905409837841373763J,5713144255,16908895338281305116J,ecom_jio
16905910668421661014J,5713335230,16914247519901920605J,ecom_jio
16906020053181195798J,5710395313,16910449804861381254J,ecom_jio
16906029849901440990J,R607342426JIM,16913311358101528091J,shadowfax_jio
16906063372301510927J,5710393646,16910534119831112440J,ecom_jio
16906067943091449018J,5713339440,16908950915961438404J,ecom_jio
16903047528261858679J,5725460928,16907762683661694518J,ecom_jio
16903792583841739573J,5713335517,16909992312761187689J,ecom_jio
16903874355421137649J,5725457081,16909009026671069471J,ecom_jio
16903882244271526508J,5714539015,16913403629211843814J,ecom_jio
16903915302771862583J,24591793452654,16913426584831311305J,xpressbees_jio
16903956005351332122J,5725460813,16910579530881671549J,ecom_jio
16903963698991927945J,11576182702836,16907961054401591628J,delhivery_jio
16904398605851835167J,24591793451084,16912145454461685815J,xpressbees_jio
16904411793591307573J,5714536762,16909661454031809628J,ecom_jio
16904417243871718140J,5725458739,16907000130801813667J,ecom_jio
16904667922401496777J,5713333540,16908949083961085743J,ecom_jio
16905054690131184823J,5710391643,16915085082801547023J,ecom_jio
16905238783401683037J,5714536160,16911566588401463253J,ecom_jio
16905259428261005088J,5713136424,16911283265601027410J,ecom_jio
16905358485251219884J,24591793451699,16912420844301830517J,xpressbees_jio
16905935286221000670J,5725457011,16910269838181366230J,ecom_jio
16906052719131751069J,5725461482,16907803665041936821J,ecom_jio
16903293887841976770J,5725460809,16910783947971580776J,ecom_jio
16903918825251811827J,5725454917,16909845002821992899J,ecom_jio
16904609908221926007J,5725456175,16910674158341180984J,ecom_jio
16904653878391907469J,5713142691,16908252048221450654J,ecom_jio
16904664447161963553J,24591793451461,16912314816091650775J,xpressbees_jio
16904702857151868232J,5713136476,16911469593521319734J,ecom_jio
16904702857151868232J,5711121450,16911470460411146993J,ecom_jio
16904702865211284065J,5711114109,16911470630981132648J,ecom_jio
16904724625541722829J,5714542921,16908180122321387524J,ecom_jio
16904740158371677767J,5714537401,16907888889991522400J,ecom_jio
16905025559611746649J,11576182963192,16909592709071446700J,delhivery_jio
16905268478081513025J,5714537690,16911100156241038504J,ecom_jio
16905674372611332064J,24591793451690,16912417365631067737J,xpressbees_jio
16905682240811203576J,5725456028,16911388100741712867J,ecom_jio
16905711655581238824J,24591793451151,16912176416541558209J,xpressbees_jio
16905728480241976412J,5713143684,16914282985031354017J,ecom_jio
16905970236281008155J,5725452177,16913852233381178040J,ecom_jio
16903373518791702770J,5725457501,16908804645391830795J,ecom_jio
16903435253371203571J,5713145424,16909538391971877944J,ecom_jio
16903710887821191960J,5725460592,16911160004561999108J,ecom_jio
16903874759661924663J,5725458408,16909813297201597937J,ecom_jio
16904397472821716300J,24591793454612,16915124245151132019J,xpressbees_jio
16904441149251546346J,5710396553,16910266530501665314J,ecom_jio
16904489602541730938J,5725462005,16908025427031136747J,ecom_jio
16904696532231184110J,5713331222,16911689941311528148J,ecom_jio
16905258260581326669J,5711114284,16909708740881766213J,ecom_jio
16905676998671974778J,5714541990,16915030457171996601J,ecom_jio
16905677343881363319J,5725461524,16910620686671050436J,ecom_jio
16905713357201112062J,24591793447139,16908846652461468092J,xpressbees_jio
16903830019821180353J,5725457361,16909045709731116026J,ecom_jio
16904412821991785704J,5713335515,16912860088371904867J,ecom_jio
16905101038951559147J,5725459385,16912056788881901938J,ecom_jio
16905361946691672744J,5725456882,16911576252331977702J,ecom_jio
16905716718531012009J,5725459065,16910570965201383052J,ecom_jio
16904497647841674184J,24591793452788,16913828315381992974J,xpressbees_jio
16904737796311225354J,5713334823,16910519923021769221J,ecom_jio
16904745334571364330J,5713142898,16911196578071789396J,ecom_jio
16905322449211343679J,24591793448105,16909647640431614123J,xpressbees_jio
16905385693141398218J,5713334647,16909685871591562523J,ecom_jio
16903385859971665870J,24591793452545,16913312890431280031J,xpressbees_jio
16903825933331696952J,5725457308,16907030764041793132J,ecom_jio
16904440816321321206J,5725456383,16908742916481645130J,ecom_jio
16906041155281652467J,5725457607,16910341889611517109J,ecom_jio
16906737063701377866J,11576183728970,16914337533701707077J,delhivery_jio
16906779408741085468J,11576184920871,16919955398411357736J,delhivery_jio
16906779408741085468J,11576185011473,16920207380181696190J,delhivery_jio
16906779617381371626J,5711122115,16912825427931330613J,ecom_jio
16906828595981811783J,5725453189,16911540745641022124J,ecom_jio
16906849961741119719J,5710392109,16911610920541550199J,ecom_jio
16906850975721067308J,5713338612,16911242133151567679J,ecom_jio
16906859002501467759J,5714544425,16909072867421987778J,ecom_jio
16906861260241978881J,11576182848451,16908930495671161268J,delhivery_jio
16906872641141870223J,5714545767,16908883912331182240J,ecom_jio
16906876449691333365J,5708921158,16911510017031323102J,ecom_jio
16906893091631349979J,24591793452709,16913704678561410906J,xpressbees_jio
16906905037201461056J,5714536591,16910757964401357773J,ecom_jio
16906919989561192989J,5725453490,16914055300861964213J,ecom_jio
16906928500681160480J,24591793456660,16917232147901581240J,xpressbees_jio
16906939670221200650J,5713332301,16909703422871037485J,ecom_jio
16906950579501989468J,24591793452573,16913331392891192277J,xpressbees_jio
16906941777461585260J,5710388894,16919099573931889280J,ecom_jio
16906962693781758312J,5713144603,16908695383461269057J,ecom_jio
16906963960421818482J,5711121806,16913112609501357990J,ecom_jio
16907398861581923740J,5708922670,16913079506491352401J,ecom_jio
16907397848591401882J,5713135668,16912509301301067352J,ecom_jio
16907416215361180309J,R605141938JIM,16910378862101933929J,shadowfax_jio
16907422176211389587J,5725456361,16911185736341491587J,ecom_jio
16907484188421568433J,5710389302,16913421731631504876J,ecom_jio
16907486894611887644J,24591793458423,16918427814921563740J,xpressbees_jio
16907494598601934776J,5708921243,16910015369311645335J,ecom_jio
16908085060611386093J,5713336772,16913001125581729554J,ecom_jio
16908112725631166915J,24591793462059,16921702129391783500J,xpressbees_jio
16908160709261699901J,5713333189,16913158760391750375J,ecom_jio
16908178984451601633J,24591793454276,16914940121691722234J,xpressbees_jio
16908188336301691137J,5714540276,16910767922581874367J,ecom_jio
16908213001411783454J,5725457316,16912341825261647608J,ecom_jio
16908221027411281926J,5709494015,16911599929871860559J,ecom_jio
16908221455101851480J,24591793453898,16914745744441738674J,xpressbees_jio
16908245015811428165J,24591793454534,16915080188731477045J,xpressbees_jio
16908274933401225076J,R607248231JIM,16913152074491279966J,shadowfax_jio
16906348356791357946J,5714538471,16912066852501105045J,ecom_jio
16906350656361908613J,11576184966651,16920070139181985681J,delhivery_jio
16906398348231903985J,24591793455569,16915984090621935689J,xpressbees_jio
16906430034611700517J,24591793454252,16914924508651005752J,xpressbees_jio
16906430568261232822J,11576184039405,16916544718921922952J,delhivery_jio
16906431586931951882J,5713143999,16911228095731593633J,ecom_jio
16906473409861315244J,5713336409,16913232511041314395J,ecom_jio
16906474249221175086J,5708920723,16911307053081845878J,ecom_jio
16906474920461952559J,5713329922,16915106324571068272J,ecom_jio
16906525687181845126J,11576183730171,16914498401541518842J,delhivery_jio
16907016335181578745J,24591793451451,16912307828881687897J,xpressbees_jio
16907059042701124061J,5711120531,16912153521751504302J,ecom_jio
16907088674301309636J,5725461082,16910353580921379006J,ecom_jio
16907139639911311961J,5710388756,16912238520341807475J,ecom_jio
16907221357601602678J,24591793454261,16914929911281471336J,xpressbees_jio
16907248665611208062J,5725457453,16910597314071449685J,ecom_jio
16907258999891676195J,24591793452062,16913007730101722696J,xpressbees_jio
16907291154581370928J,5725459629,16911541493361084557J,ecom_jio
16907304907121583356J,5711118893,16914825927141587777J,ecom_jio
16907331008411464665J,5714539288,16913946479221829135J,ecom_jio
16907337013251854241J,24591793453472,16914189343891379747J,xpressbees_jio
16907373901951394981J,5725453311,16915787021691755187J,ecom_jio
16907376409781542416J,5713339412,16912278978521073333J,ecom_jio
16907382159181357894J,5710392023,16911345177191472730J,ecom_jio
16907712718531385618J,24591793453729,16914603518561730463J,xpressbees_jio
16907828119871607891J,5713136274,16911222571211969505J,ecom_jio
16907867876791342343J,5713335778,16914784613701858532J,ecom_jio
16907951067591589482J,24591793456097,16916604057281372869J,xpressbees_jio
16907989099961436123J,5714542305,16916070888981161249J,ecom_jio
16908036354101264467J,24591793456242,16916692383981184443J,xpressbees_jio
16906372692861099299J,5725459225,16912298560481817260J,ecom_jio
16906541903861404201J,5713338577,16911238571021617144J,ecom_jio
16906630762241475953J,24591793451498,16912331924391234700J,xpressbees_jio
16907107181711825572J,24591793460382,16920165069951968192J,xpressbees_jio
16907117350711261745J,24591793457567,16917695112101696426J,xpressbees_jio
16907184417171562348J,24591793451147,16912173614741702552J,xpressbees_jio
16907201986951504826J,24591793455509,16915941105621755478J,xpressbees_jio
16907273440541073236J,R608059898JIM,16913860964251811970J,shadowfax_jio
16907279240561665916J,24591793451134,16912166978701492867J,xpressbees_jio
16907327947321128699J,24591793452297,16913162509251572443J,xpressbees_jio
16907370806191208282J,24591793451847,16912520998551779613J,xpressbees_jio
16907675420831456715J,24591793455354,16915861946601037226J,xpressbees_jio
16907675420831456715J,24591793455355,16915862753261305142J,xpressbees_jio
16907072464961065474J,24591793453633,16914287931371175415J,xpressbees_jio
16907183353921308697J,11576183535641,16913324934781594396J,delhivery_jio
16907328958161835005J,24591793454705,16915429222881986218J,xpressbees_jio
16907809754591969450J,24591793451546,16912355288931080375J,xpressbees_jio
16907241298741957836J,24591793451746,16912452266301993389J,xpressbees_jio
16907938006231910217J,24591793451609,16912380619711171131J,xpressbees_jio
16907776332831567763J,R608122640JIM,16913943105931929520J,shadowfax_jio
16907841145441918980J,24591793453606,16914270031331524081J,xpressbees_jio
16907226496381581839J,11576183944953,16915788197491609514J,delhivery_jio
16907243717281142800J,R608154823JIM,16914007611141880975J,shadowfax_jio
16907266922151150396J,24591793453111,16913994513871130278J,xpressbees_jio
16866241352071596202J,R565045824JIM,16869722240221038263J,shadowfax_jio
16878631226821660033J,R590410790JIM,16886287784131191151J,shadowfax_jio