shipment_id,Return_id,Payload,Response_text,Status code,Response_text,date_time
16846492769581808009J,16851702267151149516J,"{""waybill"": [""1000000000""], ""return_id"": ""16851702267151149516J"", ""tracking_code"": ""1000000000"", ""shipment_id"": ""16846492769581808009J"", ""status"": ""pickup_initiated"", ""shipping_agent_code"": ""xpressbees_jio"", ""shipping_charge"": ""65""}","{'meta': {'result': 'success', 'message': None}, 'result': {'shipment_id': '16846492769581808009J', 'return_id': '16851702267151149516J', 'msg': 'Successfully updated'}}",200,"{
	""meta"":
	{
		""result"": ""success"",
		""message"": null
	},
	""result"": {""shipment_id"":""16846492769581808009J"",""return_id"":""16851702267151149516J"",""msg"":""Successfully updated""}
}",2023-08-09 00:52:00.028822
16839586433111442626J,16850839711591878708J,"{""waybill"": [""1000000001""], ""return_id"": ""16850839711591878708J"", ""tracking_code"": ""1000000001"", ""shipment_id"": ""16839586433111442626J"", ""status"": ""pickup_initiated"", ""shipping_agent_code"": ""xpressbees_jio"", ""shipping_charge"": ""65""}","{'meta': {'result': 'success', 'message': None}, 'result': {'shipment_id': '16839586433111442626J', 'return_id': '16850839711591878708J', 'msg': 'Successfully updated'}}",200,"{
	""meta"":
	{
		""result"": ""success"",
		""message"": null
	},
	""result"": {""shipment_id"":""16839586433111442626J"",""return_id"":""16850839711591878708J"",""msg"":""Successfully updated""}
}",2023-08-09 00:52:00.243705
16833051765021276291J,16840406485631347348J,"{""waybill"": [""1000000002""], ""return_id"": ""16840406485631347348J"", ""tracking_code"": ""1000000002"", ""shipment_id"": ""16833051765021276291J"", ""status"": ""pickup_initiated"", ""shipping_agent_code"": ""xpressbees_jio"", ""shipping_charge"": ""46""}","{'meta': {'result': 'success', 'message': None}, 'result': {'shipment_id': '16833051765021276291J', 'return_id': '16840406485631347348J', 'msg': 'Successfully updated'}}",200,"{
	""meta"":
	{
		""result"": ""success"",
		""message"": null
	},
	""result"": {""shipment_id"":""16833051765021276291J"",""return_id"":""16840406485631347348J"",""msg"":""Successfully updated""}
}",2023-08-09 00:52:00.483832
16842225838621330866J,16849246709101729538J,"{""waybill"": [""1000000003""], ""return_id"": ""16849246709101729538J"", ""tracking_code"": ""1000000003"", ""shipment_id"": ""16842225838621330866J"", ""status"": ""pickup_initiated"", ""shipping_agent_code"": ""xpressbees_jio"", ""shipping_charge"": ""46""}","{'meta': {'result': 'success', 'message': None}, 'result': {'shipment_id': '16842225838621330866J', 'return_id': '16849246709101729538J', 'msg': 'Successfully updated'}}",200,"{
	""meta"":
	{
		""result"": ""success"",
		""message"": null
	},
	""result"": {""shipment_id"":""16842225838621330866J"",""return_id"":""16849246709101729538J"",""msg"":""Successfully updated""}
}",2023-08-09 00:52:00.715965
16852672752691122466J,16855744875351459585J,"{""waybill"": [""1000000004""], ""return_id"": ""16855744875351459585J"", ""tracking_code"": ""1000000004"", ""shipment_id"": ""16852672752691122466J"", ""status"": ""pickup_initiated"", ""shipping_agent_code"": ""delhivery_jio"", ""shipping_charge"": ""46""}","{'meta': {'result': 'success', 'message': None}, 'result': {'shipment_id': '16852672752691122466J', 'return_id': '16855744875351459585J', 'msg': 'Successfully updated'}}",200,"{
	""meta"":
	{
		""result"": ""success"",
		""message"": null
	},
	""result"": {""shipment_id"":""16852672752691122466J"",""return_id"":""16855744875351459585J"",""msg"":""Successfully updated""}
}",2023-08-09 00:52:00.940318
16835631666371171543J,16852906561011049046J,"{""waybill"": [""1000000005""], ""return_id"": ""16852906561011049046J"", ""tracking_code"": ""1000000005"", ""shipment_id"": ""16835631666371171543J"", ""status"": ""pickup_initiated"", ""shipping_agent_code"": ""xpressbees_jio"", ""shipping_charge"": ""206""}","{'meta': {'result': 'success', 'message': None}, 'result': {'shipment_id': '16835631666371171543J', 'return_id': '16852906561011049046J', 'msg': 'Successfully updated'}}",200,"{
	""meta"":
	{
		""result"": ""success"",
		""message"": null
	},
	""result"": {""shipment_id"":""16835631666371171543J"",""return_id"":""16852906561011049046J"",""msg"":""Successfully updated""}
}",2023-08-09 00:52:01.159942
16832701950241765036J,16839222046581848914J,"{""waybill"": [""1000000006""], ""return_id"": ""16839222046581848914J"", ""tracking_code"": ""1000000006"", ""shipment_id"": ""16832701950241765036J"", ""status"": ""pickup_initiated"", ""shipping_agent_code"": ""delhivery_jio"", ""shipping_charge"": ""65""}","{'meta': {'result': 'success', 'message': None}, 'result': {'shipment_id': '16832701950241765036J', 'return_id': '16839222046581848914J', 'msg': 'Successfully updated'}}",200,"{
	""meta"":
	{
		""result"": ""success"",
		""message"": null
	},
	""result"": {""shipment_id"":""16832701950241765036J"",""return_id"":""16839222046581848914J"",""msg"":""Successfully updated""}
}",2023-08-09 00:52:01.424990
16836862939121367473J,16845959624051259047J,"{""waybill"": [""1000000007""], ""return_id"": ""16845959624051259047J"", ""tracking_code"": ""1000000007"", ""shipment_id"": ""16836862939121367473J"", ""status"": ""pickup_initiated"", ""shipping_agent_code"": ""xpressbees_jio"", ""shipping_charge"": ""65""}","{'meta': {'result': 'success', 'message': None}, 'result': {'shipment_id': '16836862939121367473J', 'return_id': '16845959624051259047J', 'msg': 'Successfully updated'}}",200,"{
	""meta"":
	{
		""result"": ""success"",
		""message"": null
	},
	""result"": {""shipment_id"":""16836862939121367473J"",""return_id"":""16845959624051259047J"",""msg"":""Successfully updated""}
}",2023-08-09 00:52:01.649278
16844694086061081250J,16857759847211506846J,"{""waybill"": [""1000000008""], ""return_id"": ""16857759847211506846J"", ""tracking_code"": ""1000000008"", ""shipment_id"": ""16844694086061081250J"", ""status"": ""pickup_initiated"", ""shipping_agent_code"": ""xpressbees_jio"", ""shipping_charge"": ""65""}","{'meta': {'result': 'success', 'message': None}, 'result': {'shipment_id': '16844694086061081250J', 'return_id': '16857759847211506846J', 'msg': 'Successfully updated'}}",200,"{
	""meta"":
	{
		""result"": ""success"",
		""message"": null
	},
	""result"": {""shipment_id"":""16844694086061081250J"",""return_id"":""16857759847211506846J"",""msg"":""Successfully updated""}
}",2023-08-09 00:52:01.858822
16850950937091146274J,16861382835331187237J,"{""waybill"": [""1000000009""], ""return_id"": ""16861382835331187237J"", ""tracking_code"": ""1000000009"", ""shipment_id"": ""16850950937091146274J"", ""status"": ""pickup_initiated"", ""shipping_agent_code"": ""xpressbees_jio"", ""shipping_charge"": ""206""}","{'meta': {'result': 'success', 'message': None}, 'result': {'shipment_id': '16850950937091146274J', 'return_id': '16861382835331187237J', 'msg': 'Successfully updated'}}",200,"{
	""meta"":
	{
		""result"": ""success"",
		""message"": null
	},
	""result"": {""shipment_id"":""16850950937091146274J"",""return_id"":""16861382835331187237J"",""msg"":""Successfully updated""}
}",2023-08-09 00:52:02.069623
16847530654451327089J,16863264318991356735J,"{""waybill"": [""1000000010""], ""return_id"": ""16863264318991356735J"", ""tracking_code"": ""1000000010"", ""shipment_id"": ""16847530654451327089J"", ""status"": ""pickup_initiated"", ""shipping_agent_code"": ""xpressbees_jio"", ""shipping_charge"": ""65""}","{'meta': {'result': 'success', 'message': None}, 'result': {'shipment_id': '16847530654451327089J', 'return_id': '16863264318991356735J', 'msg': 'Successfully updated'}}",200,"{
	""meta"":
	{
		""result"": ""success"",
		""message"": null
	},
	""result"": {""shipment_id"":""16847530654451327089J"",""return_id"":""16863264318991356735J"",""msg"":""Successfully updated""}
}",2023-08-09 00:52:02.570188
