payment_methods,refund_source_id,shipment_id,refund_amount
"[{""payment_mode"": ""COD"", ""apportioned_amount"": 1259.0}]",16638623976081531916J,16634075052361578673J,1259
"[{""apportioned_amount"": 294.0, ""payment_mode"": ""COD""}]",16640181024281657921J,16633415435441080781J,294
"[{""apportioned_amount"": 99.0, ""payment_mode"": ""COD""}]",16644166705961618782J,16640296641151655101J,99
"[{""payment_mode"": ""COD"", ""apportioned_amount"": 349.0}]",16658250626401687919J,16642887371081216241J,349
"[{""payment_mode"": ""COD"", ""apportioned_amount"": 1199.0}]",16660698083051664327J,16657176928741692633J,1199
"[{""payment_mode"": ""COD"", ""apportioned_amount"": 399.0}]",16664110757181431432J,16657148376081349228J,399
"[{""payment_mode"": ""COD"", ""apportioned_amount"": 182.0}]",16666914812481506081J,16656701586021569696J,182
"[{""apportioned_amount"": 359.0, ""payment_mode"": ""COD""}]",16668634459061438155J,16664693757081032529J,359
"[{""apportioned_amount"": 299.0, ""payment_mode"": ""COD""}]",16671991469061784993J,16664467051331191136J,299
"[{""payment_mode"": ""Prepaid_Payments"", ""apportioned_amount"": 428.0}]",16672297466761623589J,16655992453011499875J,428
"[{""payment_mode"": ""COD"", ""apportioned_amount"": 1999.0}]",16673925927231398541J,16661508309291769114J,1999
"[{""payment_mode"": ""COD"", ""apportioned_amount"": 569.0}]",16690354354721625112J,16685938748861630802J,569
"[{""payment_mode"": ""COD"", ""apportioned_amount"": 499.0}]",16693759821961807332J,16690450758201969212J,499
"[{""apportioned_amount"": 249.0, ""payment_mode"": ""COD""}]",16696229532111232101J,16692003355281734260J,249
"[{""payment_mode"": ""COD"", ""apportioned_amount"": 1799.0}]",16709888770361952958J,16705799655251590201J,1799
"[{""apportioned_amount"": 380.0, ""payment_mode"": ""COD""}]",16712693962001392772J,16708259985961783808J,380
"[{""apportioned_amount"": 399.0, ""payment_mode"": ""COD""}]",16713580631621118558J,16706569050211581952J,399
"[{""apportioned_amount"": 249.0, ""payment_mode"": ""COD""}]",16714959932081271010J,16711145028001983864J,249
"[{""apportioned_amount"": 499.0, ""payment_mode"": ""COD""}]",16716079075651356707J,16711976829041824945J,499
"[{""payment_mode"": ""COD"", ""apportioned_amount"": 349.0}]",16723998293351924569J,16714487322201188601J,349
"[{""payment_mode"": ""COD"", ""apportioned_amount"": 199.0}]",16724712232881529531J,16720621331211406762J,199
"[{""payment_mode"": ""COD"", ""apportioned_amount"": 269.0}]",16727243198321681009J,16723677944971992604J,269
"[{""apportioned_amount"": 499.0, ""payment_mode"": ""COD""}]",16729350910391053667J,16725615426071169375J,499
"[{""payment_mode"": ""COD"", ""apportioned_amount"": 279.0}]",16729738669141827690J,16725496665801367360J,279
"[{""apportioned_amount"": 219.0, ""payment_mode"": ""COD""}]",16734221566311289413J,16729404481251852873J,219
"[{""payment_mode"": ""COD"", ""apportioned_amount"": 349.0}]",16734565716061851681J,16730103305071312761J,349
"[{""apportioned_amount"": 229.0, ""payment_mode"": ""COD""}]",16735005690381308066J,16728250565091321621J,229
"[{""payment_mode"": ""COD"", ""apportioned_amount"": 399.0}]",16738480444541988214J,16733435922781912004J,399
"[{""payment_mode"": ""COD"", ""apportioned_amount"": 316.0}]",16739350492291024353J,16728471334121088673J,316
"[{""payment_mode"": ""COD"", ""apportioned_amount"": 749.0}]",16761064426851667819J,16755119082701959591J,749
"[{""payment_mode"": ""COD"", ""apportioned_amount"": 249.0}]",16785983550761760071J,16781029169001435382J,249
"[{""apportioned_amount"": 155.0, ""payment_mode"": ""COD""}]",16786134700581328431J,16783653377211520649J,155
"[{""payment_mode"": ""COD"", ""apportioned_amount"": 198.0}]",16788977152021748267J,16784537720841050002J,198
"[{""payment_mode"": ""COD"", ""apportioned_amount"": 299.0}]",16794004559991377873J,16787105343511453906J,299
"[{""apportioned_amount"": 229.0, ""payment_mode"": ""COD""}]",16794040636481918136J,16790443873221603928J,229
"[{""apportioned_amount"": 399.0, ""payment_mode"": ""COD""}]",16795925788891023543J,16793085079731510690J,399
"[{""apportioned_amount"": 718.2, ""payment_mode"": ""Prepaid_Payments""}, {""apportioned_amount"": 79.8, ""payment_mode"": ""Prepaid_Payments""}]",16801592639511712651J,16776768969911578012J,1197
"[{""apportioned_amount"": 389.0, ""payment_mode"": ""COD""}]",16801670973181824434J,16798529619451578390J,389
"[{""apportioned_amount"": 4999.0, ""payment_mode"": ""COD""}]",16817319863991637955J,16815399283151751982J,4999
"[{""apportioned_amount"": 512.0, ""payment_mode"": ""Prepaid_Payments""}]",16826082996321910933J,16819278640311062286J,512
"[{""apportioned_amount"": 199.0, ""payment_mode"": ""COD""}]",16826773396121722162J,16818462801071948574J,199
"[{""apportioned_amount"": 1999.0, ""payment_mode"": ""COD""}]",16830871273101388631J,16826473097191033431J,1999
"[{""apportioned_amount"": 570.0, ""payment_mode"": ""COD""}]",16832234423981319097J,16827095239761879000J,570
"[{""payment_mode"": ""COD"", ""apportioned_amount"": 1999.0}]",16832947667061386510J,16828367190991716415J,1999