shipment_id,Return_id,Payload,Status code,Response_text,date_time
16634075052361578673J,16638623976081531916J,"{""status"": ""complete"", ""refund_source_id"": ""16638623976081531916J"", ""refund_amount"": 1259, ""shipment_id"": ""16634075052361578673J"", ""payment_methods"": [{""payment_mode"": ""COD"", ""apportioned_amount"": 1259.0}]}",200,"{
	""meta"":
	{
		""result"": ""success"",
		""message"": null
	},
	""result"": {""shipment_id"":""16634075052361578673J"",""msg"":""Successfully updated !!""}
}",2023-07-19 18:02:19.467096
16633415435441080781J,16640181024281657921J,"{""status"": ""complete"", ""refund_source_id"": ""16640181024281657921J"", ""refund_amount"": 294, ""shipment_id"": ""16633415435441080781J"", ""payment_methods"": [{""apportioned_amount"": 294.0, ""payment_mode"": ""COD""}]}",200,"{
	""meta"":
	{
		""result"": ""success"",
		""message"": null
	},
	""result"": {""shipment_id"":""16633415435441080781J"",""msg"":""Successfully updated !!""}
}",2023-07-19 18:02:19.850872
16640296641151655101J,16644166705961618782J,"{""status"": ""complete"", ""refund_source_id"": ""16644166705961618782J"", ""refund_amount"": 99, ""shipment_id"": ""16640296641151655101J"", ""payment_methods"": [{""apportioned_amount"": 99.0, ""payment_mode"": ""COD""}]}",200,"{
	""meta"":
	{
		""result"": ""success"",
		""message"": null
	},
	""result"": {""shipment_id"":""16640296641151655101J"",""msg"":""Successfully updated !!""}
}",2023-07-19 18:02:20.124571
16642887371081216241J,16658250626401687919J,"{""status"": ""complete"", ""refund_source_id"": ""16658250626401687919J"", ""refund_amount"": 349, ""shipment_id"": ""16642887371081216241J"", ""payment_methods"": [{""payment_mode"": ""COD"", ""apportioned_amount"": 349.0}]}",200,"{
	""meta"":
	{
		""result"": ""success"",
		""message"": null
	},
	""result"": {""shipment_id"":""16642887371081216241J"",""msg"":""Successfully updated !!""}
}",2023-07-19 18:02:20.359448
16657176928741692633J,16660698083051664327J,"{""status"": ""complete"", ""refund_source_id"": ""16660698083051664327J"", ""refund_amount"": 1199, ""shipment_id"": ""16657176928741692633J"", ""payment_methods"": [{""payment_mode"": ""COD"", ""apportioned_amount"": 1199.0}]}",200,"{
	""meta"":
	{
		""result"": ""success"",
		""message"": null
	},
	""result"": {""shipment_id"":""16657176928741692633J"",""msg"":""Successfully updated !!""}
}",2023-07-19 18:02:20.641567
16657148376081349228J,16664110757181431432J,"{""status"": ""complete"", ""refund_source_id"": ""16664110757181431432J"", ""refund_amount"": 399, ""shipment_id"": ""16657148376081349228J"", ""payment_methods"": [{""payment_mode"": ""COD"", ""apportioned_amount"": 399.0}]}",200,"{
	""meta"":
	{
		""result"": ""success"",
		""message"": null
	},
	""result"": {""shipment_id"":""16657148376081349228J"",""msg"":""Successfully updated !!""}
}",2023-07-19 18:02:20.892222
16656701586021569696J,16666914812481506081J,"{""status"": ""complete"", ""refund_source_id"": ""16666914812481506081J"", ""refund_amount"": 182, ""shipment_id"": ""16656701586021569696J"", ""payment_methods"": [{""payment_mode"": ""COD"", ""apportioned_amount"": 182.0}]}",200,"{
	""meta"":
	{
		""result"": ""success"",
		""message"": null
	},
	""result"": {""shipment_id"":""16656701586021569696J"",""msg"":""Successfully updated !!""}
}",2023-07-19 18:02:21.172757
16664693757081032529J,16668634459061438155J,"{""status"": ""complete"", ""refund_source_id"": ""16668634459061438155J"", ""refund_amount"": 359, ""shipment_id"": ""16664693757081032529J"", ""payment_methods"": [{""apportioned_amount"": 359.0, ""payment_mode"": ""COD""}]}",200,"{
	""meta"":
	{
		""result"": ""success"",
		""message"": null
	},
	""result"": {""shipment_id"":""16664693757081032529J"",""msg"":""Successfully updated !!""}
}",2023-07-19 18:02:21.392087
16664467051331191136J,16671991469061784993J,"{""status"": ""complete"", ""refund_source_id"": ""16671991469061784993J"", ""refund_amount"": 299, ""shipment_id"": ""16664467051331191136J"", ""payment_methods"": [{""apportioned_amount"": 299.0, ""payment_mode"": ""COD""}]}",200,"{
	""meta"":
	{
		""result"": ""success"",
		""message"": null
	},
	""result"": {""shipment_id"":""16664467051331191136J"",""msg"":""Successfully updated !!""}
}",2023-07-19 18:02:21.631459
16655992453011499875J,16672297466761623589J,"{""status"": ""complete"", ""refund_source_id"": ""16672297466761623589J"", ""refund_amount"": 428, ""shipment_id"": ""16655992453011499875J"", ""payment_methods"": [{""payment_mode"": ""Prepaid_Payments"", ""apportioned_amount"": 428.0}]}",422,"{
	""meta"":
	{
		""result"": ""invalid_input"",
		""message"": {""msg"":""Invalid Refund Reference""}
	},
	""result"": {}
}",2023-07-19 18:02:21.851137
16661508309291769114J,16673925927231398541J,"{""status"": ""complete"", ""refund_source_id"": ""16673925927231398541J"", ""refund_amount"": 1999, ""shipment_id"": ""16661508309291769114J"", ""payment_methods"": [{""payment_mode"": ""COD"", ""apportioned_amount"": 1999.0}]}",200,"{
	""meta"":
	{
		""result"": ""success"",
		""message"": null
	},
	""result"": {""shipment_id"":""16661508309291769114J"",""msg"":""Successfully updated !!""}
}",2023-07-19 18:02:22.102111
16685938748861630802J,16690354354721625112J,"{""status"": ""complete"", ""refund_source_id"": ""16690354354721625112J"", ""refund_amount"": 569, ""shipment_id"": ""16685938748861630802J"", ""payment_methods"": [{""payment_mode"": ""COD"", ""apportioned_amount"": 569.0}]}",200,"{
	""meta"":
	{
		""result"": ""success"",
		""message"": null
	},
	""result"": {""shipment_id"":""16685938748861630802J"",""msg"":""Successfully updated !!""}
}",2023-07-19 18:02:22.324170
16690450758201969212J,16693759821961807332J,"{""status"": ""complete"", ""refund_source_id"": ""16693759821961807332J"", ""refund_amount"": 499, ""shipment_id"": ""16690450758201969212J"", ""payment_methods"": [{""payment_mode"": ""COD"", ""apportioned_amount"": 499.0}]}",200,"{
	""meta"":
	{
		""result"": ""success"",
		""message"": null
	},
	""result"": {""shipment_id"":""16690450758201969212J"",""msg"":""Successfully updated !!""}
}",2023-07-19 18:02:22.562824
16692003355281734260J,16696229532111232101J,"{""status"": ""complete"", ""refund_source_id"": ""16696229532111232101J"", ""refund_amount"": 249, ""shipment_id"": ""16692003355281734260J"", ""payment_methods"": [{""apportioned_amount"": 249.0, ""payment_mode"": ""COD""}]}",200,"{
	""meta"":
	{
		""result"": ""success"",
		""message"": null
	},
	""result"": {""shipment_id"":""16692003355281734260J"",""msg"":""Successfully updated !!""}
}",2023-07-19 18:02:23.020614
16705799655251590201J,16709888770361952958J,"{""status"": ""complete"", ""refund_source_id"": ""16709888770361952958J"", ""refund_amount"": 1799, ""shipment_id"": ""16705799655251590201J"", ""payment_methods"": [{""payment_mode"": ""COD"", ""apportioned_amount"": 1799.0}]}",200,"{
	""meta"":
	{
		""result"": ""success"",
		""message"": null
	},
	""result"": {""shipment_id"":""16705799655251590201J"",""msg"":""Successfully updated !!""}
}",2023-07-19 18:02:23.292995
16708259985961783808J,16712693962001392772J,"{""status"": ""complete"", ""refund_source_id"": ""16712693962001392772J"", ""refund_amount"": 380, ""shipment_id"": ""16708259985961783808J"", ""payment_methods"": [{""apportioned_amount"": 380.0, ""payment_mode"": ""COD""}]}",200,"{
	""meta"":
	{
		""result"": ""success"",
		""message"": null
	},
	""result"": {""shipment_id"":""16708259985961783808J"",""msg"":""Successfully updated !!""}
}",2023-07-19 18:02:23.690523
16706569050211581952J,16713580631621118558J,"{""status"": ""complete"", ""refund_source_id"": ""16713580631621118558J"", ""refund_amount"": 399, ""shipment_id"": ""16706569050211581952J"", ""payment_methods"": [{""apportioned_amount"": 399.0, ""payment_mode"": ""COD""}]}",200,"{
	""meta"":
	{
		""result"": ""success"",
		""message"": null
	},
	""result"": {""shipment_id"":""16706569050211581952J"",""msg"":""Successfully updated !!""}
}",2023-07-19 18:02:23.984043
16711145028001983864J,16714959932081271010J,"{""status"": ""complete"", ""refund_source_id"": ""16714959932081271010J"", ""refund_amount"": 249, ""shipment_id"": ""16711145028001983864J"", ""payment_methods"": [{""apportioned_amount"": 249.0, ""payment_mode"": ""COD""}]}",200,"{
	""meta"":
	{
		""result"": ""success"",
		""message"": null
	},
	""result"": {""shipment_id"":""16711145028001983864J"",""msg"":""Successfully updated !!""}
}",2023-07-19 18:02:24.205848
16711976829041824945J,16716079075651356707J,"{""status"": ""complete"", ""refund_source_id"": ""16716079075651356707J"", ""refund_amount"": 499, ""shipment_id"": ""16711976829041824945J"", ""payment_methods"": [{""apportioned_amount"": 499.0, ""payment_mode"": ""COD""}]}",200,"{
	""meta"":
	{
		""result"": ""success"",
		""message"": null
	},
	""result"": {""shipment_id"":""16711976829041824945J"",""msg"":""Successfully updated !!""}
}",2023-07-19 18:02:24.711858
16714487322201188601J,16723998293351924569J,"{""status"": ""complete"", ""refund_source_id"": ""16723998293351924569J"", ""refund_amount"": 349, ""shipment_id"": ""16714487322201188601J"", ""payment_methods"": [{""payment_mode"": ""COD"", ""apportioned_amount"": 349.0}]}",200,"{
	""meta"":
	{
		""result"": ""success"",
		""message"": null
	},
	""result"": {""shipment_id"":""16714487322201188601J"",""msg"":""Successfully updated !!""}
}",2023-07-19 18:02:24.993121
16720621331211406762J,16724712232881529531J,"{""status"": ""complete"", ""refund_source_id"": ""16724712232881529531J"", ""refund_amount"": 199, ""shipment_id"": ""16720621331211406762J"", ""payment_methods"": [{""payment_mode"": ""COD"", ""apportioned_amount"": 199.0}]}",200,"{
	""meta"":
	{
		""result"": ""success"",
		""message"": null
	},
	""result"": {""shipment_id"":""16720621331211406762J"",""msg"":""Successfully updated !!""}
}",2023-07-19 18:02:25.236262
16723677944971992604J,16727243198321681009J,"{""status"": ""complete"", ""refund_source_id"": ""16727243198321681009J"", ""refund_amount"": 269, ""shipment_id"": ""16723677944971992604J"", ""payment_methods"": [{""payment_mode"": ""COD"", ""apportioned_amount"": 269.0}]}",200,"{
	""meta"":
	{
		""result"": ""success"",
		""message"": null
	},
	""result"": {""shipment_id"":""16723677944971992604J"",""msg"":""Successfully updated !!""}
}",2023-07-19 18:02:25.449985
16725615426071169375J,16729350910391053667J,"{""status"": ""complete"", ""refund_source_id"": ""16729350910391053667J"", ""refund_amount"": 499, ""shipment_id"": ""16725615426071169375J"", ""payment_methods"": [{""apportioned_amount"": 499.0, ""payment_mode"": ""COD""}]}",200,"{
	""meta"":
	{
		""result"": ""success"",
		""message"": null
	},
	""result"": {""shipment_id"":""16725615426071169375J"",""msg"":""Successfully updated !!""}
}",2023-07-19 18:02:25.680309
16725496665801367360J,16729738669141827690J,"{""status"": ""complete"", ""refund_source_id"": ""16729738669141827690J"", ""refund_amount"": 279, ""shipment_id"": ""16725496665801367360J"", ""payment_methods"": [{""payment_mode"": ""COD"", ""apportioned_amount"": 279.0}]}",200,"{
	""meta"":
	{
		""result"": ""success"",
		""message"": null
	},
	""result"": {""shipment_id"":""16725496665801367360J"",""msg"":""Successfully updated !!""}
}",2023-07-19 18:02:25.905588
16729404481251852873J,16734221566311289413J,"{""status"": ""complete"", ""refund_source_id"": ""16734221566311289413J"", ""refund_amount"": 219, ""shipment_id"": ""16729404481251852873J"", ""payment_methods"": [{""apportioned_amount"": 219.0, ""payment_mode"": ""COD""}]}",200,"{
	""meta"":
	{
		""result"": ""success"",
		""message"": null
	},
	""result"": {""shipment_id"":""16729404481251852873J"",""msg"":""Successfully updated !!""}
}",2023-07-19 18:02:26.189118
16730103305071312761J,16734565716061851681J,"{""status"": ""complete"", ""refund_source_id"": ""16734565716061851681J"", ""refund_amount"": 349, ""shipment_id"": ""16730103305071312761J"", ""payment_methods"": [{""payment_mode"": ""COD"", ""apportioned_amount"": 349.0}]}",200,"{
	""meta"":
	{
		""result"": ""success"",
		""message"": null
	},
	""result"": {""shipment_id"":""16730103305071312761J"",""msg"":""Successfully updated !!""}
}",2023-07-19 18:02:26.734687
16728250565091321621J,16735005690381308066J,"{""status"": ""complete"", ""refund_source_id"": ""16735005690381308066J"", ""refund_amount"": 229, ""shipment_id"": ""16728250565091321621J"", ""payment_methods"": [{""apportioned_amount"": 229.0, ""payment_mode"": ""COD""}]}",200,"{
	""meta"":
	{
		""result"": ""success"",
		""message"": null
	},
	""result"": {""shipment_id"":""16728250565091321621J"",""msg"":""Successfully updated !!""}
}",2023-07-19 18:02:27.276512
16733435922781912004J,16738480444541988214J,"{""status"": ""complete"", ""refund_source_id"": ""16738480444541988214J"", ""refund_amount"": 399, ""shipment_id"": ""16733435922781912004J"", ""payment_methods"": [{""payment_mode"": ""COD"", ""apportioned_amount"": 399.0}]}",200,"{
	""meta"":
	{
		""result"": ""success"",
		""message"": null
	},
	""result"": {""shipment_id"":""16733435922781912004J"",""msg"":""Successfully updated !!""}
}",2023-07-19 18:02:27.537299
16728471334121088673J,16739350492291024353J,"{""status"": ""complete"", ""refund_source_id"": ""16739350492291024353J"", ""refund_amount"": 316, ""shipment_id"": ""16728471334121088673J"", ""payment_methods"": [{""payment_mode"": ""COD"", ""apportioned_amount"": 316.0}]}",200,"{
	""meta"":
	{
		""result"": ""success"",
		""message"": null
	},
	""result"": {""shipment_id"":""16728471334121088673J"",""msg"":""Successfully updated !!""}
}",2023-07-19 18:02:27.756293
16755119082701959591J,16761064426851667819J,"{""status"": ""complete"", ""refund_source_id"": ""16761064426851667819J"", ""refund_amount"": 749, ""shipment_id"": ""16755119082701959591J"", ""payment_methods"": [{""payment_mode"": ""COD"", ""apportioned_amount"": 749.0}]}",200,"{
	""meta"":
	{
		""result"": ""success"",
		""message"": null
	},
	""result"": {""shipment_id"":""16755119082701959591J"",""msg"":""Successfully updated !!""}
}",2023-07-19 18:02:28.131056
16781029169001435382J,16785983550761760071J,"{""status"": ""complete"", ""refund_source_id"": ""16785983550761760071J"", ""refund_amount"": 249, ""shipment_id"": ""16781029169001435382J"", ""payment_methods"": [{""payment_mode"": ""COD"", ""apportioned_amount"": 249.0}]}",200,"{
	""meta"":
	{
		""result"": ""success"",
		""message"": null
	},
	""result"": {""shipment_id"":""16781029169001435382J"",""msg"":""Successfully updated !!""}
}",2023-07-19 18:02:28.348022
16783653377211520649J,16786134700581328431J,"{""status"": ""complete"", ""refund_source_id"": ""16786134700581328431J"", ""refund_amount"": 155, ""shipment_id"": ""16783653377211520649J"", ""payment_methods"": [{""apportioned_amount"": 155.0, ""payment_mode"": ""COD""}]}",200,"{
	""meta"":
	{
		""result"": ""success"",
		""message"": null
	},
	""result"": {""shipment_id"":""16783653377211520649J"",""msg"":""Successfully updated !!""}
}",2023-07-19 18:02:28.592685
16784537720841050002J,16788977152021748267J,"{""status"": ""complete"", ""refund_source_id"": ""16788977152021748267J"", ""refund_amount"": 198, ""shipment_id"": ""16784537720841050002J"", ""payment_methods"": [{""payment_mode"": ""COD"", ""apportioned_amount"": 198.0}]}",200,"{
	""meta"":
	{
		""result"": ""success"",
		""message"": null
	},
	""result"": {""shipment_id"":""16784537720841050002J"",""msg"":""Successfully updated !!""}
}",2023-07-19 18:02:28.817896
16787105343511453906J,16794004559991377873J,"{""status"": ""complete"", ""refund_source_id"": ""16794004559991377873J"", ""refund_amount"": 299, ""shipment_id"": ""16787105343511453906J"", ""payment_methods"": [{""payment_mode"": ""COD"", ""apportioned_amount"": 299.0}]}",200,"{
	""meta"":
	{
		""result"": ""success"",
		""message"": null
	},
	""result"": {""shipment_id"":""16787105343511453906J"",""msg"":""Successfully updated !!""}
}",2023-07-19 18:02:29.052929
16790443873221603928J,16794040636481918136J,"{""status"": ""complete"", ""refund_source_id"": ""16794040636481918136J"", ""refund_amount"": 229, ""shipment_id"": ""16790443873221603928J"", ""payment_methods"": [{""apportioned_amount"": 229.0, ""payment_mode"": ""COD""}]}",200,"{
	""meta"":
	{
		""result"": ""success"",
		""message"": null
	},
	""result"": {""shipment_id"":""16790443873221603928J"",""msg"":""Successfully updated !!""}
}",2023-07-19 18:02:29.285835
16793085079731510690J,16795925788891023543J,"{""status"": ""complete"", ""refund_source_id"": ""16795925788891023543J"", ""refund_amount"": 399, ""shipment_id"": ""16793085079731510690J"", ""payment_methods"": [{""apportioned_amount"": 399.0, ""payment_mode"": ""COD""}]}",200,"{
	""meta"":
	{
		""result"": ""success"",
		""message"": null
	},
	""result"": {""shipment_id"":""16793085079731510690J"",""msg"":""Successfully updated !!""}
}",2023-07-19 18:02:29.530717
16776768969911578012J,16801592639511712651J,"{""status"": ""complete"", ""refund_source_id"": ""16801592639511712651J"", ""refund_amount"": 1197, ""shipment_id"": ""16776768969911578012J"", ""payment_methods"": [{""apportioned_amount"": 718.2, ""payment_mode"": ""Prepaid_Payments""}, {""apportioned_amount"": 79.8, ""payment_mode"": ""Prepaid_Payments""}]}",422,"{
	""meta"":
	{
		""result"": ""invalid_input"",
		""message"": {""msg"":""Invalid Refund Reference""}
	},
	""result"": {}
}",2023-07-19 18:02:29.895355
16798529619451578390J,16801670973181824434J,"{""status"": ""complete"", ""refund_source_id"": ""16801670973181824434J"", ""refund_amount"": 389, ""shipment_id"": ""16798529619451578390J"", ""payment_methods"": [{""apportioned_amount"": 389.0, ""payment_mode"": ""COD""}]}",200,"{
	""meta"":
	{
		""result"": ""success"",
		""message"": null
	},
	""result"": {""shipment_id"":""16798529619451578390J"",""msg"":""Successfully updated !!""}
}",2023-07-19 18:02:30.142329
16815399283151751982J,16817319863991637955J,"{""status"": ""complete"", ""refund_source_id"": ""16817319863991637955J"", ""refund_amount"": 4999, ""shipment_id"": ""16815399283151751982J"", ""payment_methods"": [{""apportioned_amount"": 4999.0, ""payment_mode"": ""COD""}]}",200,"{
	""meta"":
	{
		""result"": ""success"",
		""message"": null
	},
	""result"": {""shipment_id"":""16815399283151751982J"",""msg"":""Successfully updated !!""}
}",2023-07-19 18:02:30.384198
16819278640311062286J,16826082996321910933J,"{""status"": ""complete"", ""refund_source_id"": ""16826082996321910933J"", ""refund_amount"": 512, ""shipment_id"": ""16819278640311062286J"", ""payment_methods"": [{""apportioned_amount"": 512.0, ""payment_mode"": ""Prepaid_Payments""}]}",200,"{
	""meta"":
	{
		""result"": ""success"",
		""message"": null
	},
	""result"": {""shipment_id"":""16819278640311062286J"",""msg"":""Successfully updated !!""}
}",2023-07-19 18:02:30.624434
16818462801071948574J,16826773396121722162J,"{""status"": ""complete"", ""refund_source_id"": ""16826773396121722162J"", ""refund_amount"": 199, ""shipment_id"": ""16818462801071948574J"", ""payment_methods"": [{""apportioned_amount"": 199.0, ""payment_mode"": ""COD""}]}",200,"{
	""meta"":
	{
		""result"": ""success"",
		""message"": null
	},
	""result"": {""shipment_id"":""16818462801071948574J"",""msg"":""Successfully updated !!""}
}",2023-07-19 18:02:30.844413
16826473097191033431J,16830871273101388631J,"{""status"": ""complete"", ""refund_source_id"": ""16830871273101388631J"", ""refund_amount"": 1999, ""shipment_id"": ""16826473097191033431J"", ""payment_methods"": [{""apportioned_amount"": 1999.0, ""payment_mode"": ""COD""}]}",200,"{
	""meta"":
	{
		""result"": ""success"",
		""message"": null
	},
	""result"": {""shipment_id"":""16826473097191033431J"",""msg"":""Successfully updated !!""}
}",2023-07-19 18:02:31.687501
16827095239761879000J,16832234423981319097J,"{""status"": ""complete"", ""refund_source_id"": ""16832234423981319097J"", ""refund_amount"": 570, ""shipment_id"": ""16827095239761879000J"", ""payment_methods"": [{""apportioned_amount"": 570.0, ""payment_mode"": ""COD""}]}",200,"{
	""meta"":
	{
		""result"": ""success"",
		""message"": null
	},
	""result"": {""shipment_id"":""16827095239761879000J"",""msg"":""Successfully updated !!""}
}",2023-07-19 18:02:31.904259
16828367190991716415J,16832947667061386510J,"{""status"": ""complete"", ""refund_source_id"": ""16832947667061386510J"", ""refund_amount"": 1999, ""shipment_id"": ""16828367190991716415J"", ""payment_methods"": [{""payment_mode"": ""COD"", ""apportioned_amount"": 1999.0}]}",200,"{
	""meta"":
	{
		""result"": ""success"",
		""message"": null
	},
	""result"": {""shipment_id"":""16828367190991716415J"",""msg"":""Successfully updated !!""}
}",2023-07-19 18:02:32.172302
